<?xml version="1.0" encoding="UTF-8"?>
<!-- Generator: visioncortex VTracer 0.6.3 -->
<svg version="1.1" xmlns="http://www.w3.org/2000/svg" width="1280" height="1280">
<path d="M0 0 C11.74 -0.32 22.68 -0.53 34 3 C34.33 2.34 34.66 1.68 35 1 C35 1.66 35 2.32 35 3 C35.66 2.67 36.32 2.34 37 2 C41.92 1.72 45.38 2.46 50 4 C51.64 4.2 53.29 4.36 54.94 4.5 C59.19 4.87 62.91 5.73 67 7 C70.07 7.76 73.15 8.49 76.23 9.22 C79 10 79 10 81.24 11.16 C81.82 11.43 82.4 11.71 83 12 C83.66 11.67 84.32 11.34 85 11 C85.33 11.66 85.66 12.32 86 13 C87.56 13.45 89.13 13.89 90.7 14.3 C94.64 15.5 98.36 17.23 102.13 18.88 C104.77 19.91 107.21 20.55 110 21 C110 21.66 110 22.32 110 23 C110.56 23.12 111.13 23.25 111.71 23.38 C114.15 24.04 116.32 24.95 118.62 26 C119.4 26.35 120.18 26.7 120.98 27.06 C123.33 28.15 125.03 29.03 127 30.75 C129.56 32.67 131.69 33.86 134.56 35.19 C140.94 38.26 146.68 42.34 152 47 C152 47.66 152 48.32 152 49 C152.76 49.14 153.53 49.29 154.31 49.44 C159.39 50.5 160.89 51.91 164 56 C165.95 58.11 167.56 59.37 170 61 C170 61.66 170 62.32 170 63 C170.58 63.26 171.17 63.52 171.77 63.79 C174.16 65.09 175.76 66.5 177.68 68.41 C178.36 69.09 179.04 69.77 179.75 70.47 C180.8 71.54 180.8 71.54 181.88 72.62 C182.92 73.66 182.92 73.66 183.98 74.71 C189.48 80.23 194.64 85.9 198 93 C198.66 93 199.32 93 200 93 C203 97.38 203 97.38 203 100 C203.66 100 204.32 100 205 100 C205.39 100.85 205.78 101.69 206.19 102.56 C207.58 105.2 208.94 107.38 210.69 109.75 C213 113 213 113 213 115 C213.66 115 214.32 115 215 115 C217.69 120.32 220.36 125.65 223 131 C223.32 131.64 223.64 132.29 223.97 132.95 C224.82 134.69 225.66 136.44 226.5 138.19 C226.98 139.19 227.47 140.2 227.97 141.23 C229.02 144.04 229.22 146.03 229 149 C229.66 149 230.32 149 231 149 C233.34 154.02 234.89 158.98 236.25 164.35 C236.94 166.99 236.94 166.99 238 169.38 C239.25 172.66 239.85 175.92 240.5 179.38 C241.22 183.19 241.97 186.89 243.06 190.62 C243.93 193.74 244.35 196.52 244.56 199.75 C244.77 202.8 245.03 205.09 246 208 C246.09 209.81 246.13 211.62 246.13 213.43 C246.13 215.1 246.13 215.1 246.14 216.8 C246.14 218 246.13 219.2 246.13 220.44 C246.13 221.67 246.13 222.9 246.14 224.17 C246.14 227.44 246.13 230.72 246.13 233.99 C246.13 236 246.13 238.01 246.13 240.01 C246.14 243.86 246.14 247.71 246.13 251.56 C246.13 252.76 246.14 253.96 246.14 255.2 C246.14 256.31 246.13 257.42 246.13 258.57 C246.13 260.04 246.13 260.04 246.13 261.53 C246 264 246 264 245 267 C244.73 269.96 244.56 272.93 244.38 275.89 C243.98 279.17 243.07 281.89 242 285 C241.49 287.41 241.01 289.83 240.56 292.25 C237.86 306.34 237.86 306.34 235 311.97 C233.89 314.21 233.23 316.4 232.56 318.81 C231.33 323.04 229.8 326.97 228 331 C227.37 332.6 226.75 334.21 226.12 335.81 C223.33 342.83 220.02 349.6 216 356 C215.29 357.21 215.29 357.21 214.56 358.44 C212.79 361.35 210.9 364.17 209 367 C208.54 367.69 208.09 368.39 207.62 369.1 C203.52 375.33 199.23 381.34 194.44 387.06 C192.58 389.3 190.95 391.49 189.31 393.88 C188.55 394.91 187.79 395.94 187 397 C186.34 397 185.68 397 185 397 C185 397.66 185 398.32 185 399 C184.34 399 183.68 399 183 399 C182.67 399.99 182.34 400.98 182 402 C181.34 402 180.68 402 180 402 C180 402.66 180 403.32 180 404 C179.34 404 178.68 404 178 404 C177.67 404.99 177.34 405.98 177 407 C176.34 407 175.68 407 175 407 C175 407.66 175 408.32 175 409 C174.2 409.29 173.39 409.58 172.56 409.88 C169.87 410.73 169.87 410.73 169 413 C168.34 413 167.68 413 167 413 C166.67 413.99 166.34 414.98 166 416 C162.46 419.65 158.41 422.5 154 425 C153.3 425.56 152.6 426.11 151.88 426.69 C150 428 150 428 147 428 C147 428.66 147 429.32 147 430 C146.05 430.54 145.09 431.09 144.11 431.64 C142.85 432.37 141.58 433.09 140.31 433.81 C139.69 434.17 139.06 434.53 138.42 434.89 C137.8 435.24 137.18 435.6 136.55 435.96 C135.94 436.3 135.34 436.65 134.71 437.01 C133.22 437.87 131.75 438.78 130.29 439.7 C128.13 440.93 126.39 441.42 124 442 C122.48 443.14 122.48 443.14 120.94 444.31 C116.35 447.74 109.83 451 104 451 C104 451.66 104 452.32 104 453 C102.63 453.65 101.25 454.3 99.88 454.94 C99.11 455.3 98.34 455.66 97.55 456.03 C95 457 95 457 92.07 457.48 C88.78 458.04 86.13 459.07 83.06 460.38 C76.73 462.9 70.6 464.25 63.92 465.42 C61.12 465.69 61.12 465.69 60 467 C56.54 467.29 53.08 467.45 49.61 467.62 C46.12 467.82 46.12 467.82 43.55 469.01 C38.24 470.49 33.05 470.28 27.56 470.27 C25.76 470.27 25.76 470.27 23.92 470.27 C21.39 470.27 18.86 470.27 16.32 470.26 C12.45 470.25 8.57 470.26 4.7 470.27 C2.23 470.27 -0.23 470.27 -2.69 470.27 C-3.85 470.27 -5.01 470.27 -6.2 470.28 C-7.28 470.27 -8.36 470.27 -9.48 470.26 C-10.43 470.26 -11.37 470.26 -12.35 470.25 C-15.23 469.98 -17.35 469.12 -20 468 C-23.25 467.67 -26.47 467.49 -29.74 467.35 C-34.83 467.09 -34.83 467.09 -37 466 C-39.23 465.73 -41.47 465.56 -43.71 465.38 C-46.14 464.98 -47.82 464.11 -50 463 C-51.01 463 -52.02 463 -53.06 463 C-56 463 -56 463 -59 461 C-61.04 460.4 -61.04 460.4 -63.25 460 C-70.85 458.41 -77.86 456.01 -85 453 C-85.89 452.63 -86.78 452.26 -87.7 451.88 C-93.69 449.28 -99.08 446.2 -104.49 442.55 C-106.94 441.04 -109.31 439.98 -112 439 C-112 438.34 -112 437.68 -112 437 C-112.57 436.89 -113.14 436.77 -113.73 436.65 C-116.21 435.94 -118.06 434.93 -120.25 433.56 C-121.31 432.91 -121.31 432.91 -122.39 432.25 C-123.19 431.63 -123.19 431.63 -124 431 C-124 430.34 -124 429.68 -124 429 C-124.87 428.59 -124.87 428.59 -125.75 428.18 C-131.64 425.1 -136.34 420.66 -141 416 C-141.99 415.67 -142.98 415.34 -144 415 C-145.25 413.44 -145.25 413.44 -146.44 411.56 C-148.32 408.77 -149.7 407.1 -153 406 C-153 405.34 -153 404.68 -153 404 C-153.84 403.66 -153.84 403.66 -154.69 403.31 C-159.87 400.37 -162.76 395.85 -166 391 C-168.77 389.06 -168.77 389.06 -171 388 C-171.44 387.26 -171.88 386.53 -172.34 385.77 C-174.15 382.76 -176.2 380.35 -178.56 377.75 C-179.74 376.44 -179.74 376.44 -180.94 375.11 C-182.82 372.95 -182.82 372.95 -185 372 C-186.75 369.34 -187.99 367.03 -189 364 C-189.66 364 -190.32 364 -191 364 C-196 358.64 -196 358.64 -196 355 C-196.99 354.67 -197.98 354.34 -199 354 C-200.19 351.44 -200.19 351.44 -201 349 C-201.66 349 -202.32 349 -203 349 C-204.35 347.01 -205.68 345.01 -207 343 C-207.74 342.26 -208.49 341.51 -209.25 340.75 C-209.83 340.17 -210.4 339.6 -211 339 C-211 338.34 -211 337.68 -211 337 C-211.66 337 -212.32 337 -213 337 C-214.33 335 -215.67 333 -217 331 C-217.74 330.44 -218.49 329.89 -219.25 329.31 C-219.83 328.88 -220.4 328.45 -221 328 C-221 327.01 -221 326.02 -221 325 C-221.99 324.67 -222.98 324.34 -224 324 C-225.37 322.37 -226.71 320.7 -228 319 C-228.87 318.16 -228.87 318.16 -229.75 317.31 C-231 316 -231 316 -231 314 C-231.66 314 -232.32 314 -233 314 C-234.23 312.57 -235.46 311.13 -236.64 309.66 C-239.43 306.26 -242.34 303.44 -246 301 C-246 300.34 -246 299.68 -246 299 C-246.55 298.76 -247.11 298.53 -247.68 298.28 C-250.55 296.7 -252.71 294.72 -255.12 292.5 C-256.43 291.31 -256.43 291.31 -257.76 290.09 C-259.19 288.75 -260.61 287.39 -262 286 C-268.09 281.83 -274.33 278.15 -281 275 C-281 274.34 -281 273.68 -281 273 C-282.05 272.88 -283.1 272.75 -284.19 272.62 C-287.46 272.09 -290.01 271.36 -293 270 C-293 269.34 -293 268.68 -293 268 C-294.33 268.06 -294.33 268.06 -295.69 268.12 C-299.09 268 -300.89 267.3 -304 266 C-306.33 265.44 -308.66 264.94 -311.01 264.46 C-313 264 -313 264 -315 263 C-318.44 262.74 -321.88 262.56 -325.32 262.39 C-330.9 262.1 -330.9 262.1 -332 261 C-335.58 260.75 -339.17 260.81 -342.75 260.81 C-343.75 260.8 -344.76 260.79 -345.79 260.78 C-346.76 260.77 -347.73 260.77 -348.73 260.77 C-350.07 260.76 -350.07 260.76 -351.43 260.76 C-354.27 261.03 -356.39 261.86 -359 263 C-360.66 263.33 -362.33 263.63 -364 263.88 C-376.62 266.1 -386.95 270.8 -398 277 C-399.33 277.68 -400.66 278.35 -402 279 C-402 279.66 -402 280.32 -402 281 C-402.99 281 -403.98 281 -405 281 C-405.33 281.66 -405.66 282.32 -406 283 C-406.66 283 -407.32 283 -408 283 C-408.33 283.99 -408.66 284.98 -409 286 C-410.74 287.79 -410.74 287.79 -412.88 289.62 C-413.92 290.54 -413.92 290.54 -414.99 291.48 C-417 293 -417 293 -420 294 C-420.33 294.66 -420.66 295.32 -421 296 C-421.33 296.66 -421.66 297.32 -422 298 C-422.99 298.33 -423.98 298.66 -425 299 C-425.33 299.66 -425.66 300.32 -426 301 C-426.33 301.66 -426.66 302.32 -427 303 C-427.99 303.33 -428.98 303.66 -430 304 C-430.68 305.33 -431.34 306.66 -432 308 C-433.44 309.59 -434.93 311.13 -436.46 312.62 C-437.35 313.5 -438.23 314.37 -439.14 315.27 C-440.06 316.17 -440.99 317.07 -441.94 318 C-443.76 319.79 -445.58 321.58 -447.4 323.38 C-448.21 324.17 -449.02 324.96 -449.86 325.77 C-451.77 327.76 -453.38 329.78 -455 332 C-457 334 -457 334 -459 335 C-459 335.66 -459 336.32 -459 337 C-459.66 337 -460.32 337 -461 337 C-461.33 337.99 -461.66 338.98 -462 340 C-463.36 340.89 -464.73 341.77 -466.12 342.62 C-469.41 345.03 -472.08 348.1 -474.85 351.07 C-477.06 353.05 -478.17 353.46 -481 354 C-482.35 355.31 -483.69 356.65 -485 358 C-485.99 358.33 -486.98 358.66 -488 359 C-488.66 359.99 -489.32 360.98 -490 362 C-492.3 363.25 -494.55 364.37 -496.94 365.44 C-497.61 365.74 -498.28 366.05 -498.98 366.37 C-510.75 371.65 -521.69 374.96 -534.59 375.75 C-536.95 375.74 -536.95 375.74 -538 377 C-540.95 377.1 -543.87 377.14 -546.81 377.13 C-548.14 377.13 -548.14 377.13 -549.49 377.14 C-551.36 377.14 -553.24 377.13 -555.11 377.13 C-557.99 377.13 -560.86 377.13 -563.74 377.14 C-565.56 377.14 -567.37 377.13 -569.19 377.13 C-570.05 377.13 -570.92 377.14 -571.81 377.14 C-577.89 377.11 -577.89 377.11 -579 376 C-582 375.71 -585.01 375.55 -588.02 375.38 C-590.88 375.01 -592.5 374.34 -595 373 C-596.15 372.9 -597.31 372.79 -598.5 372.69 C-603.49 372.19 -607.73 370.18 -612.27 368.16 C-614.54 367.19 -616.61 366.56 -619 366 C-621.02 365.04 -623.01 364.03 -625 363 C-625.73 362.66 -626.47 362.32 -627.22 361.97 C-634.1 358.74 -639.99 354.63 -646 350 C-646.96 349.27 -647.93 348.53 -648.92 347.78 C-654.14 343.72 -654.14 343.72 -656 342 C-656 341.34 -656 340.68 -656 340 C-656.99 340 -657.98 340 -659 340 C-659 339.34 -659 338.68 -659 338 C-659.66 338 -660.32 338 -661 338 C-663.62 335.69 -663.62 335.69 -666 333 C-666 332.01 -666 331.02 -666 330 C-666.99 329.67 -667.98 329.34 -669 329 C-671 328 -671 328 -672.31 325.75 C-673.91 322.86 -673.91 322.86 -676.62 320.62 C-679.53 317.42 -679.75 315.25 -680 311 C-680.99 310.67 -681.98 310.34 -683 310 C-684.44 307.49 -685.71 305.04 -686.94 302.44 C-687.27 301.75 -687.61 301.05 -687.95 300.34 C-688.63 298.94 -689.3 297.54 -689.97 296.13 C-691.61 292.73 -693.31 289.37 -695 286 C-697.9 280.2 -699.09 274.37 -700.35 268.01 C-700.85 265.09 -700.85 265.09 -702 263 C-701.56 260.88 -701.56 260.88 -701 259 C-701.66 258.67 -702.32 258.34 -703 258 C-702.34 258 -701.68 258 -701 258 C-701.49 257.02 -701.98 256.03 -702.48 255.02 C-704.78 248.87 -704.41 242.41 -704.34 235.94 C-704.31 233.74 -704.32 231.54 -704.32 229.34 C-704.28 217.91 -704.28 217.91 -702 214 C-701.58 211.25 -701.58 211.25 -701.44 208.38 C-701.1 203.19 -701.1 203.19 -700 201 C-699.62 199.3 -699.27 197.59 -698.94 195.88 C-698.76 194.96 -698.58 194.05 -698.4 193.12 C-698.27 192.42 -698.14 191.72 -698 191 C-697.34 191 -696.68 191 -696 191 C-695.88 190.22 -695.76 189.44 -695.63 188.63 C-695.47 187.62 -695.3 186.61 -695.12 185.56 C-694.96 184.55 -694.8 183.54 -694.63 182.5 C-694.32 181.26 -694.32 181.26 -694 180 C-693.34 179.67 -692.68 179.34 -692 179 C-691.17 176.92 -691.17 176.92 -690.5 174.5 C-689.78 172.03 -689.78 172.03 -689 170 C-688.34 169.67 -687.68 169.34 -687 169 C-686.25 167.27 -685.5 165.54 -684.79 163.79 C-683.81 161.57 -682.65 159.79 -681 158 C-680.34 158 -679.68 158 -679 158 C-679.33 157.01 -679.66 156.02 -680 155 C-679.34 155 -678.68 155 -678 155 C-678 154.34 -678 153.68 -678 153 C-677.34 153 -676.68 153 -676 153 C-675.95 152.3 -675.89 151.6 -675.84 150.87 C-674.71 147.01 -672.37 144.8 -669.57 142.04 C-668.76 141.22 -668.76 141.22 -667.93 140.38 C-666.78 139.23 -665.62 138.08 -664.46 136.94 C-662.69 135.19 -660.94 133.42 -659.19 131.64 C-658.07 130.52 -656.95 129.41 -655.82 128.29 C-655.3 127.76 -654.78 127.23 -654.24 126.68 C-651.18 123.71 -650.46 123 -646 123 C-646 122.01 -646 121.02 -646 120 C-645.01 120 -644.02 120 -643 120 C-643 119.34 -643 118.68 -643 118 C-642.13 117.6 -642.13 117.6 -641.25 117.19 C-638.97 116.06 -638.97 116.06 -637 114.5 C-635.06 113.05 -633.16 112.08 -631 111 C-630.38 110.48 -629.76 109.97 -629.12 109.44 C-626.46 107.64 -624.16 107.36 -621 107 C-621 106.34 -621 105.68 -621 105 C-619.35 104.67 -617.7 104.34 -616 104 C-616 103.67 -616 103.34 -616 103 C-612.53 102.5 -612.53 102.5 -609 102 C-609 101.34 -609 100.68 -609 100 C-604.55 99.5 -604.55 99.5 -600 99 C-600 98.34 -600 97.68 -600 97 C-597.03 97 -594.06 97 -591 97 C-590.67 96.34 -590.34 95.68 -590 95 C-588.84 94.94 -587.68 94.88 -586.49 94.82 C-584.95 94.73 -583.41 94.65 -581.88 94.56 C-581.11 94.52 -580.35 94.48 -579.57 94.44 C-575.31 94.2 -571.2 93.8 -567 93 C-567 92.67 -567 92.34 -567 92 C-561.63 91.8 -557.02 92.34 -551.79 93.5 C-547.54 94.26 -543.28 94.45 -538.98 94.66 C-535.97 95 -533.79 95.87 -531 97 C-529.21 97.18 -527.42 97.31 -525.62 97.38 C-520.29 97.76 -517.48 99.19 -513 102 C-512.07 102.14 -511.14 102.29 -510.19 102.44 C-506.12 103.16 -502.99 104.9 -499.37 106.84 C-497.22 107.89 -495.33 108.53 -493 109 C-493 109.66 -493 110.32 -493 111 C-492.15 111.19 -492.15 111.19 -491.28 111.39 C-484.76 113.13 -479.3 115.73 -475 121 C-475 121.66 -475 122.32 -475 123 C-474.41 123.27 -473.83 123.54 -473.23 123.81 C-470.98 125.01 -469.28 126.32 -467.38 128 C-466.49 128.77 -466.49 128.77 -465.59 129.56 C-463.22 131.71 -461.16 133.98 -459.12 136.44 C-457.43 138.44 -456.03 139.98 -453.88 141.5 C-451.53 143.38 -450.52 145.62 -449.13 148.24 C-447.92 150.32 -447.92 150.32 -445 152.5 C-440.78 156.01 -438.74 159.77 -437 165 C-436.01 165 -435.02 165 -434 165 C-432.15 167.63 -431.02 169.95 -430 173 C-429.34 173 -428.68 173 -428 173 C-428 173.99 -428 174.98 -428 176 C-427.01 176 -426.02 176 -425 176 C-423.95 177.29 -422.96 178.64 -422 180 C-421.2 180.8 -420.39 181.61 -419.56 182.44 C-417 185 -417 185 -414.88 187.75 C-413.13 190.25 -413.13 190.25 -410 191 C-410 191.66 -410 192.32 -410 193 C-409.13 193.15 -409.13 193.15 -408.25 193.31 C-405.68 194.1 -404.06 195.31 -402 197 C-401.34 196.67 -400.68 196.34 -400 196 C-399.55 196.58 -399.09 197.15 -398.62 197.75 C-394.84 200.99 -390.65 202.34 -386 204 C-385.15 204.31 -384.3 204.63 -383.42 204.95 C-380.25 206.1 -380.25 206.1 -377 207 C-376.34 206.67 -375.68 206.34 -375 206 C-375 206.66 -375 207.32 -375 208 C-374.13 207.79 -373.27 207.59 -372.38 207.38 C-369 207 -369 207 -366.4 207.96 C-361.96 209.32 -357.91 209.29 -353.3 209.27 C-352.38 209.27 -351.46 209.27 -350.51 209.27 C-348.58 209.27 -346.65 209.27 -344.71 209.26 C-341.75 209.25 -338.78 209.26 -335.81 209.27 C-333.93 209.27 -332.05 209.27 -330.17 209.27 C-328.84 209.27 -328.84 209.27 -327.48 209.28 C-322.75 209.47 -322.75 209.47 -319 207 C-316.27 207.03 -313.7 207.56 -311 208 C-311 207.34 -311 206.68 -311 206 C-309.68 206.66 -308.36 207.32 -307 208 C-306.67 207.01 -306.34 206.02 -306 205 C-302.7 204.67 -299.4 204.34 -296 204 C-296 203.34 -296 202.68 -296 202 C-295.22 202.04 -294.43 202.08 -293.62 202.12 C-290.84 202.29 -290.84 202.29 -289 200 C-286.57 198.56 -284.37 197.83 -281.62 197.06 C-277.16 195.75 -273.32 194.32 -270 191 C-269.67 191.33 -269.34 191.66 -269 192 C-268.61 191.34 -268.22 190.68 -267.81 190 C-266 188 -266 188 -263.31 187.75 C-262.55 187.83 -261.79 187.91 -261 188 C-260.76 187.4 -260.52 186.8 -260.27 186.18 C-258.74 183.56 -257.32 182.69 -254.75 181.11 C-248 176.56 -242.5 170.88 -236.82 165.1 C-234.98 163.23 -233.14 161.38 -231.29 159.52 C-230.11 158.33 -228.93 157.14 -227.75 155.95 C-226.93 155.12 -226.93 155.12 -226.09 154.28 C-223.79 151.94 -221.82 149.73 -220 147 C-219.53 146.55 -219.05 146.09 -218.56 145.62 C-216.84 143.96 -216.84 143.96 -215.5 141.38 C-214 139 -214 139 -211 138 C-210.86 137.42 -210.71 136.85 -210.56 136.25 C-209.59 132.38 -206.86 129.8 -204 127.12 C-202.19 125.2 -201.22 123.68 -200 121.38 C-198.11 118.19 -197.43 117.1 -194 116 C-194 115.01 -194 114.02 -194 113 C-193.01 113 -192.02 113 -191 113 C-190.94 112.28 -190.88 111.56 -190.81 110.81 C-189.75 107.13 -187.78 105.57 -185 103 C-183.05 100.24 -183.05 100.24 -182.1 98.01 C-180.84 95.7 -179.48 94.5 -177.44 92.88 C-174.79 90.79 -174.79 90.79 -173 88 C-172.34 88 -171.68 88 -171 88 C-170.9 87.41 -170.79 86.83 -170.68 86.23 C-168.3 78.47 -158.77 71.58 -153.19 66 C-152.33 65.13 -151.47 64.26 -150.59 63.36 C-149.36 62.13 -149.36 62.13 -148.11 60.88 C-147.36 60.13 -146.62 59.38 -145.86 58.62 C-144 57 -144 57 -142 57 C-141.67 56.34 -141.34 55.68 -141 55 C-140 54 -140 54 -138.06 53.69 C-135.81 53.2 -135.81 53.2 -134.94 51 C-134.63 50.34 -134.32 49.68 -134 49 C-132.51 48.5 -132.51 48.5 -131 48 C-131 47.34 -131 46.68 -131 46 C-130.07 45.57 -129.14 45.13 -128.19 44.69 C-125.13 43.27 -125.13 43.27 -123.56 41.56 C-121.56 39.56 -119.24 38.34 -116.77 36.98 C-115.26 36.15 -113.78 35.27 -112.31 34.38 C-110 33 -110 33 -107.94 32 C-105.91 31.04 -105.91 31.04 -104.06 29.44 C-101.7 27.79 -99.82 27.39 -97 27 C-97 26.34 -97 25.68 -97 25 C-94.53 24.5 -94.53 24.5 -92 24 C-92 23.67 -92 23.34 -92 23 C-90.02 22.67 -88.04 22.34 -86 22 C-86.33 21.34 -86.66 20.68 -87 20 C-82.67 17.97 -78.71 17.48 -74 17 C-74 16.34 -74 15.68 -74 15 C-73.1 14.93 -73.1 14.93 -72.17 14.85 C-71.37 14.78 -70.57 14.7 -69.75 14.62 C-68.96 14.56 -68.17 14.49 -67.36 14.41 C-64.9 13.98 -63.18 13.18 -61 12 C-59.68 11.63 -58.34 11.29 -57 11 C-57 10.67 -57 10.34 -57 10 C-56.04 9.93 -56.04 9.93 -55.07 9.85 C-53.83 9.74 -53.83 9.74 -52.56 9.62 C-51.74 9.56 -50.92 9.49 -50.07 9.41 C-49.04 9.21 -49.04 9.21 -48 9 C-47.67 8.34 -47.34 7.68 -47 7 C-44.36 7 -41.72 7 -39 7 C-38.67 6.34 -38.34 5.68 -38 5 C-35.7 4.74 -33.38 4.59 -31.06 4.5 C-25.97 4.6 -25.97 4.6 -22 2 C-17.86 1.8 -14.92 1.69 -11 3 C-10.67 2.34 -10.34 1.68 -10 1 C-10 1.66 -10 2.32 -10 3 C-6.7 2.34 -3.4 1.68 0 1 C0 0.67 0 0.34 0 0 Z M9.19 128.43 C4.97 129.53 0.55 129.47 -3.79 129.66 C-6.86 129.99 -8.35 130.58 -11 132 C-12.89 132.38 -14.79 132.73 -16.69 133.06 C-26.85 135.29 -36.85 140.56 -45 147 C-45.8 147.47 -46.61 147.95 -47.44 148.44 C-51.31 150.8 -55.02 153.56 -58 157 C-58 157.66 -58 158.32 -58 159 C-58.99 158.67 -59.98 158.34 -61 158 C-63.17 158.87 -63.17 158.87 -65 160 C-64.34 161.32 -63.68 162.64 -63 164 C-64.49 164.5 -64.49 164.5 -66 165 C-68.89 168.15 -71.42 171.59 -74 175 C-74.5 175.66 -75.01 176.33 -75.53 177.01 C-78.12 180.52 -80.17 184.04 -82 188 C-82.59 189.2 -82.59 189.2 -83.19 190.43 C-85.9 196.12 -87.91 201.67 -89.42 207.79 C-90 210 -90 210 -91 212 C-91.47 215.65 -91.87 219.3 -92.25 222.97 C-92.9 228.9 -92.9 228.9 -94 230 C-94.13 232.41 -94.19 234.78 -94.19 237.19 C-94.2 238.5 -94.22 239.81 -94.23 241.17 C-94.01 244.86 -93.23 247.55 -92 251 C-91.88 253.23 -91.88 253.23 -92 255.19 C-92.35 259.07 -92.35 259.07 -90 262 C-89.33 264.22 -88.71 266.45 -88.12 268.69 C-86.58 274.23 -84.88 279.04 -82 284 C-81.46 284.96 -80.92 285.92 -80.37 286.9 C-77.18 292.48 -74 297.97 -70 303 C-69.34 303 -68.68 303 -68 303 C-67.75 303.62 -67.5 304.24 -67.25 304.88 C-66.18 307.14 -66.18 307.14 -64 308 C-61.42 309.29 -61.22 310.42 -60 313 C-56.58 317.54 -53.47 321.23 -47.75 322.5 C-47.17 322.66 -46.6 322.83 -46 323 C-45.67 323.99 -45.34 324.98 -45 326 C-42.49 327.56 -42.49 327.56 -39.44 328.94 C-37.8 329.72 -37.8 329.72 -36.12 330.52 C-35.09 331.01 -34.06 331.5 -33 332 C-31.66 332.71 -30.33 333.41 -29 334.12 C-14.6 341.28 1.5 343.18 17.38 343.19 C18.26 343.2 19.15 343.21 20.07 343.22 C20.92 343.23 21.77 343.23 22.65 343.23 C23.41 343.23 24.18 343.24 24.97 343.24 C27.31 343.12 27.31 343.12 30 341 C32.23 340.62 32.23 340.62 34.62 340.44 C37.61 340.41 37.61 340.41 40 339 C42.32 338.72 44.64 338.55 46.97 338.38 C47.64 338.25 48.31 338.13 49 338 C49.33 337.34 49.66 336.68 50 336 C52.11 335.29 52.11 335.29 54.75 334.62 C59.02 333.43 61.65 331.96 65 329 C67.31 328.25 67.31 328.25 69 328 C69 327.34 69 326.68 69 326 C69.72 325.94 70.44 325.88 71.19 325.81 C74.89 324.74 76.32 322.75 79 320 C81.04 318.69 83.11 317.48 85.23 316.31 C87.32 314.77 87.86 313.29 89 311 C89.99 310.67 90.98 310.34 92 310 C92 309.34 92 308.68 92 308 C92.66 308 93.32 308 94 308 C94.56 306.95 95.11 305.9 95.69 304.81 C97.19 302.14 98.43 300.58 100.69 298.38 C103.18 295.82 103.7 294.5 104 291 C104.66 291 105.32 291 106 291 C107.95 288.08 108.45 286.37 109 283 C109.66 283 110.32 283 111 283 C111.12 282.05 111.25 281.1 111.38 280.12 C112 277 112 277 114 275 C114 273.68 114 272.36 114 271 C114.66 271 115.32 271 116 271 C116.12 269.76 116.25 268.52 116.38 267.25 C116.61 264.88 116.89 263.22 118 261.09 C119.26 258.45 119.42 256.17 119.62 253.25 C119.74 251.77 119.74 251.77 119.85 250.27 C119.93 249.14 119.93 249.14 120 248 C120.33 248 120.66 248 121 248 C121.25 231.93 121.08 217.38 116 202 C115.65 200.89 115.3 199.77 114.94 198.62 C114.1 196.27 113.13 194.22 112 192 C111.53 191.03 111.05 190.06 110.56 189.05 C110.05 188.01 109.53 186.96 109 185.88 C108.23 184.29 108.23 184.29 107.44 182.68 C106.14 179.94 106.14 179.94 104 178 C103.51 177.13 103.01 176.27 102.5 175.38 C102.01 174.59 101.51 173.81 101 173 C100.34 173 99.68 173 99 173 C99 172.34 99 171.68 99 171 C98.34 170.34 97.68 169.68 97 169 C96.63 168.28 96.26 167.56 95.88 166.81 C93.69 163.54 91.19 161.42 88.19 158.91 C85.24 156.34 82.56 153.54 79.86 150.7 C77.96 148.96 76.32 148.09 74 147 C71.26 145.25 68.56 143.45 65.85 141.66 C62.95 139.97 60.2 138.99 57 138 C55.97 137.46 54.94 136.93 53.88 136.38 C50.93 134.71 50.93 134.71 47 135 C47 134.34 47 133.68 47 133 C46.29 132.87 45.58 132.73 44.85 132.6 C43.93 132.42 43.01 132.24 42.06 132.06 C41.15 131.89 40.23 131.71 39.29 131.54 C37 131 37 131 36 130 C33.82 129.81 31.63 129.68 29.44 129.56 C25.31 129.31 21.52 129.03 17.56 127.81 C14 127 12.54 127.21 9.19 128.43 Z " fill="#E96806" transform="translate(948,404)"/>
<path d="M0 0 C6.67 -0.03 13.34 -0.04 20.01 -0.05 C22.28 -0.06 24.55 -0.07 26.81 -0.08 C30.08 -0.09 33.35 -0.09 36.62 -0.1 C38.13 -0.11 38.13 -0.11 39.66 -0.11 C45.52 -0.11 51.19 0.25 57 1 C58.87 1.15 60.75 1.3 62.62 1.44 C65.91 1.72 68.91 2.15 72.06 3.12 C74.9 4.33 74.9 4.33 77 3 C77 3.66 77 4.32 77 5 C77.89 4.94 78.77 4.88 79.69 4.81 C84.65 4.78 89.32 6.14 94.11 7.34 C96.99 8.11 96.99 8.11 100 8 C100.66 8 101.32 8 102 8 C102 8.66 102 9.32 102 10 C103 10.18 103 10.18 104.01 10.37 C108.58 11.23 112.68 12.25 117 14 C117.66 13.67 118.32 13.34 119 13 C119 13.66 119 14.32 119 15 C120.22 15.1 121.43 15.21 122.69 15.31 C126.5 15.79 128.74 16.93 132 19 C134.97 20.11 137.97 21.07 141 22 C141 22.66 141 23.32 141 24 C141.89 24.1 142.77 24.21 143.69 24.31 C147.09 25.02 149.09 26.16 152 28 C153.98 28.66 153.98 28.66 156 29 C156.91 29.19 157.82 29.37 158.75 29.56 C159.49 29.71 160.24 29.85 161 30 C161.33 30.99 161.66 31.98 162 33 C164.87 34.63 164.87 34.63 168.31 36.06 C170.04 36.82 170.04 36.82 171.8 37.6 C172.86 38.06 173.91 38.52 175 39 C176.33 39.66 177.67 40.33 179 41 C179.89 41.33 180.77 41.66 181.69 42 C184 43 184 43 185 45 C185.76 45.29 186.53 45.58 187.31 45.88 C190.35 47.15 191.72 48.65 194 51 C198.17 53.92 202.44 56.72 207 59 C207 59.66 207 60.32 207 61 C207.99 61.33 208.98 61.66 210 62 C210 62.66 210 63.32 210 64 C210.97 64.12 211.94 64.25 212.94 64.38 C213.95 64.58 214.96 64.79 216 65 C217 67 217 67 218 70 C218.99 70.33 219.98 70.66 221 71 C222.02 71.98 223.02 72.98 224 74 C224.66 74.33 225.32 74.66 226 75 C226.99 75.66 227.98 76.32 229 77 C229 77.99 229 78.98 229 80 C229.64 80.29 230.28 80.58 230.94 80.88 C233 82 233 82 234 84 C235.7 84.87 235.7 84.87 237.44 85.75 C241.3 87.84 241.75 89.81 243 94 C245.48 95.77 245.48 95.77 248 97 C248.33 97.66 248.66 98.32 249 99 C250.14 100.03 251.31 101.03 252.5 102 C255.89 104.78 255.89 104.78 257 107 C257.84 107.8 257.84 107.8 258.69 108.62 C261.81 111.83 264.36 115.39 267 119 C267.56 119.7 268.11 120.4 268.68 121.12 C270 123 270 123 270 125 C270.66 125 271.32 125 272 125 C272.41 125.87 272.82 126.75 273.24 127.65 C275.5 131.95 278.38 135.58 281.36 139.41 C283 142 283 142 283 146 C283.99 146.33 284.98 146.66 286 147 C287.23 148.69 287.23 148.69 288.41 150.86 C288.84 151.65 289.28 152.43 289.72 153.24 C290.16 154.07 290.61 154.9 291.06 155.75 C291.51 156.56 291.96 157.37 292.42 158.21 C294.52 162.07 296.46 165.87 298 170 C298.45 170.89 298.91 171.77 299.38 172.69 C301.12 176.25 302.58 179.87 304.03 183.56 C304.82 185.55 305.66 187.53 306.5 189.5 C307 190.65 307.49 191.81 308 193 C308.5 194.16 308.5 194.16 309 195.34 C311.04 200.22 312.58 204.88 313.51 210.09 C313.97 212.31 313.97 212.31 316 215 C316.12 218.19 316.12 218.19 316 221 C315.22 221.08 314.43 221.16 313.62 221.25 C312.76 221.5 311.89 221.75 311 222 C310.69 222.66 310.38 223.32 310.06 224 C309.71 224.66 309.36 225.32 309 226 C305.87 226.75 305.87 226.75 303 227 C303 227.66 303 228.32 303 229 C300.73 230.5 298.43 231.78 296 233 C295.01 232.67 294.02 232.34 293 232 C293 232.66 293 233.32 293 234 C286.93 237.89 282.16 239.6 275 240 C273.33 240.31 271.66 240.63 270 241 C270 241.33 270 241.66 270 242 C268.01 241.93 266.03 241.87 264.04 241.8 C261.69 241.87 261.69 241.87 259 244 C256.02 244.26 256.02 244.26 252.39 244.27 C251.08 244.27 249.77 244.27 248.41 244.27 C247.73 244.27 247.05 244.27 246.34 244.26 C244.27 244.25 242.2 244.26 240.13 244.27 C238.82 244.27 237.5 244.27 236.14 244.27 C234.94 244.26 233.74 244.26 232.5 244.26 C228.77 243.98 225.57 243.09 222 242 C219.21 241.83 219.21 241.83 217 242 C217 241.34 217 240.68 217 240 C216.01 240.33 215.02 240.66 214 241 C211.65 240.4 209.31 239.74 207 239 C207 238.34 207 237.68 207 237 C206.42 236.84 205.84 236.68 205.24 236.52 C199.73 234.87 196.08 233.08 192 229 C191.67 228.01 191.34 227.02 191 226 C190.2 225.69 189.39 225.38 188.56 225.06 C186 224 186 224 184.75 221.94 C184.5 221.3 184.25 220.66 184 220 C183.67 219.67 183.34 219.34 183 219 C182.61 218.42 182.22 217.85 181.81 217.25 C180.02 214.83 180.02 214.83 177.19 212.88 C173.48 209.94 171.53 206.12 169.3 202.01 C168.65 201.02 168.65 201.02 168 200 C167.34 200 166.68 200 166 200 C166 199.01 166 198.02 166 197 C165.34 197 164.68 197 164 197 C161 193.54 161 193.54 161 191 C160.34 190.67 159.68 190.34 159 190 C158.44 189.28 157.89 188.56 157.31 187.81 C154.93 184.92 152.41 182.75 149.49 180.43 C148 179 148 179 147 176 C146.34 176 145.68 176 145 176 C143.31 174.36 141.65 172.69 140 171 C138.9 170.09 137.8 169.2 136.69 168.31 C135.8 167.55 134.91 166.79 134 166 C134 165.34 134 164.68 134 164 C133.13 163.63 133.13 163.63 132.25 163.25 C130 162 130 162 128.06 160 C126.1 157.84 126.1 157.84 123.31 156.94 C122.55 156.63 121.79 156.32 121 156 C120.67 155.01 120.34 154.02 120 153 C117.67 151.89 115.4 150.93 113 150 C111.37 149.32 109.75 148.64 108.12 147.94 C107.36 147.62 106.6 147.3 105.82 146.96 C104 146 104 146 103 144 C101.68 144 100.36 144 99 144 C99 143.34 99 142.68 99 142 C98.36 141.9 97.72 141.79 97.06 141.69 C92.93 140.76 89 139.38 85 138 C81.74 136.89 78.51 135.86 75.19 134.94 C72 134 72 134 71 133 C70.01 133 69.02 133 68 133 C66.8 132.71 65.61 132.42 64.38 132.12 C58.87 130.84 53.29 130.28 47.68 129.7 C42.1 129.1 42.1 129.1 41 128 C36.69 127.78 32.38 127.81 28.06 127.81 C25.9 127.81 23.75 127.79 21.59 127.78 C20.2 127.77 18.82 127.77 17.43 127.77 C16.17 127.77 14.92 127.76 13.62 127.76 C9.83 128.01 6.62 128.87 3 130 C0.92 130.27 -1.16 130.48 -3.25 130.62 C-4.27 130.7 -5.28 130.77 -6.33 130.85 C-9.62 131.03 -11.85 131.05 -15 130 C-15 130.66 -15 131.32 -15 132 C-18.72 133.99 -21.88 135.22 -26 136 C-28 136.71 -29.98 137.48 -31.96 138.25 C-34 139 -34 139 -37.5 139.94 C-41.63 141.19 -45.2 143 -49 145 C-54.24 147.68 -59.4 150.13 -65 152 C-65.78 152.78 -66.57 153.57 -67.38 154.38 C-69.84 156.84 -72.01 158.25 -75 160 C-77.68 162.16 -80.29 164.37 -82.87 166.66 C-83.49 167.2 -84.11 167.75 -84.75 168.31 C-85.32 168.82 -85.89 169.34 -86.48 169.86 C-88 171 -88 171 -90 171 C-90.33 171.99 -90.66 172.98 -91 174 C-91.66 174 -92.32 174 -93 174 C-93 174.66 -93 175.32 -93 176 C-93.99 176.33 -94.98 176.66 -96 177 C-96 176.34 -96 175.68 -96 175 C-96.99 175 -97.98 175 -99 175 C-99.33 176.65 -99.66 178.3 -100 180 C-101.32 180 -102.64 180 -104 180 C-104 180.99 -104 181.98 -104 183 C-103.34 183.33 -102.68 183.66 -102 184 C-102.33 184.66 -102.66 185.32 -103 186 C-103.66 186 -104.32 186 -105 186 C-105.33 186.99 -105.66 187.98 -106 189 C-106.66 189 -107.32 189 -108 189 C-108.27 189.62 -108.54 190.24 -108.81 190.88 C-110 193 -110 193 -113 195 C-113.67 196.66 -114.34 198.33 -115 200 C-116.32 201.68 -117.65 203.35 -119 205 C-119.33 205.99 -119.66 206.98 -120 208 C-120.99 208.66 -121.98 209.32 -123 210 C-125.7 214.81 -127.79 219.95 -130 225 C-130.66 225 -131.32 225 -132 225 C-132.12 225.72 -132.24 226.43 -132.37 227.17 C-133.01 230.05 -133.94 232.59 -135.06 235.31 C-135.42 236.2 -135.79 237.08 -136.16 237.99 C-136.44 238.65 -136.71 239.32 -137 240 C-137.66 240 -138.32 240 -139 240 C-138.92 240.83 -138.84 241.65 -138.75 242.5 C-138.99 245.86 -139.38 247 -140.94 249.81 C-142.98 253.55 -143.53 256.69 -143.73 260.92 C-144 263 -144 263 -144.99 264.96 C-146.17 267.34 -146.33 269.17 -146.5 271.81 C-146.69 274.82 -147.07 277.23 -148 280.11 C-149.26 284.42 -149.29 288.54 -149.27 293 C-149.27 293.85 -149.27 294.69 -149.27 295.55 C-149.27 297.32 -149.27 299.09 -149.26 300.86 C-149.25 303.56 -149.26 306.25 -149.27 308.95 C-149.27 310.68 -149.27 312.4 -149.27 314.13 C-149.27 314.93 -149.27 315.73 -149.28 316.55 C-149.24 321.11 -148.65 324.69 -147 329 C-146.77 330.83 -146.61 332.66 -146.5 334.5 C-146.19 338.65 -145.4 342.07 -144 346 C-143.88 348.88 -143.88 348.88 -144 351 C-143.34 351 -142.68 351 -142 351 C-141.6 352.49 -141.6 352.49 -141.19 354 C-140.4 356.79 -139.45 359.44 -138.38 362.12 C-137.18 365.2 -136.69 367.66 -137 371 C-136.34 371 -135.68 371 -135 371 C-133.66 373.58 -132.33 376.16 -131 378.75 C-130.62 379.48 -130.24 380.21 -129.84 380.96 C-129.48 381.67 -129.12 382.38 -128.75 383.11 C-128.41 383.76 -128.08 384.41 -127.73 385.08 C-127 387 -127 387 -127 391 C-126.34 391 -125.68 391 -125 391 C-123.56 392.83 -123.56 392.83 -122 395.25 C-121.48 396.04 -120.97 396.83 -120.44 397.64 C-119 400 -119 400 -117.95 402.13 C-116.97 404.23 -116.97 404.23 -114.88 406.62 C-113 409 -113 409 -113 411 C-112.42 411.21 -111.84 411.41 -111.25 411.62 C-109 413 -109 413 -107.21 415.72 C-104.88 419.18 -102.35 421.92 -99.38 424.81 C-98.89 425.3 -98.4 425.79 -97.89 426.29 C-95.2 428.98 -95.2 428.98 -92 431 C-91.67 431.99 -91.34 432.98 -91 434 C-90.01 434 -89.02 434 -88 434 C-87.01 435.49 -87.01 435.49 -86 437 C-83.88 439.12 -81.84 440.65 -79.06 441.81 C-77 443 -77 443 -75.12 445.5 C-72.6 448.47 -70.69 448.96 -67 450 C-66.34 450.66 -65.68 451.32 -65 452 C-64.4 452.29 -63.8 452.58 -63.19 452.88 C-61 454 -61 454 -58.88 455.94 C-55.49 458.37 -52.41 459.2 -48.43 460.28 C-45.41 461.17 -42.78 462.55 -40 464 C-39.01 464.33 -38.02 464.66 -37 465 C-34 466 -34 466 -30.94 467.56 C-28.15 468.93 -26.02 469.42 -23 470 C-20.49 470.72 -18 471.5 -15.5 472.28 C-11.08 473.55 -6.76 474.18 -2.19 474.56 C-1.21 474.65 -0.24 474.73 0.77 474.82 C1.51 474.88 2.24 474.94 3 475 C3 475.66 3 476.32 3 477 C3.8 476.84 4.61 476.67 5.44 476.51 C9.67 475.91 13.75 475.88 18.01 475.9 C19.29 475.9 19.29 475.9 20.59 475.91 C23.29 475.91 25.99 475.92 28.69 475.94 C30.51 475.94 32.34 475.95 34.17 475.95 C37.5 475.96 40.84 475.97 44.17 475.98 C46.45 475.99 48.72 476 51 476 C51.33 475.67 51.66 475.34 52 475 C55.62 474.67 59.24 474.49 62.88 474.28 C65.86 474.35 65.86 474.35 67 473 C69.01 472.6 71.04 472.26 73.06 471.94 C74.17 471.76 75.27 471.58 76.41 471.4 C77.26 471.27 78.12 471.14 79 471 C79 470.67 79 470.34 79 470 C80.07 469.88 81.14 469.75 82.25 469.62 C86.8 468.87 89.2 467.53 93 465 C96.19 464.88 96.19 464.88 99 465 C99 464.34 99 463.68 99 463 C99.64 462.88 100.28 462.75 100.94 462.62 C101.96 462.32 101.96 462.32 103 462 C103.33 461.34 103.66 460.68 104 460 C105.65 460 107.3 460 109 460 C109.33 459.01 109.66 458.02 110 457 C112.33 456.22 114.61 455.58 117 455 C117 454.34 117 453.68 117 453 C118.65 451.97 120.32 450.97 122 450 C122.85 449.32 123.69 448.64 124.56 447.94 C127 446 127 446 128.94 445.12 C132.08 443.41 133.84 440.75 136.02 437.97 C138 436 138 436 140.86 434.59 C144.48 432.75 147.07 430.37 149.88 427.5 C150.37 427.01 150.87 426.53 151.38 426.03 C154.43 423.09 154.43 423.09 155 419 C155.87 418.97 155.87 418.97 156.75 418.94 C159.73 417.7 160.43 415.82 161.78 412.98 C163.47 410.24 165.7 408.26 168 406 C168.98 405.02 169.95 404.03 170.92 403.05 C173.74 400.2 176.55 397.35 179.38 394.51 C180.59 393.29 181.8 392.06 183.02 390.83 C184.77 389.06 186.53 387.28 188.29 385.51 C188.84 384.96 189.38 384.41 189.94 383.84 C191.25 382.52 192.62 381.25 194 380 C194.66 380 195.32 380 196 380 C196 379.34 196 378.68 196 378 C198.09 376.88 199.85 376.03 202.19 375.56 C202.79 375.38 203.38 375.19 204 375 C204.33 374.01 204.66 373.02 205 372 C209.57 368.98 213.68 367.41 219 366 C219.74 365.61 220.49 365.22 221.25 364.81 C223 364 223 364 226 365 C226 364.34 226 363.68 226 363 C239.64 356.18 263.08 361.34 277 365 C277.95 365.19 278.9 365.37 279.88 365.56 C282 366 282 366 284 367 C284 367.66 284 368.32 284 369 C285.09 369.1 286.19 369.21 287.31 369.31 C291.24 370.04 291.46 370.35 294 373 C296.33 373.68 298.66 374.35 301 375 C301.67 376.33 302.33 377.67 303 379 C303.91 379.25 304.82 379.5 305.75 379.75 C310.55 381.6 312.57 384.95 315.44 389.06 C316.26 391.91 315.28 393.38 314 396 C312.83 398.78 311.87 401.46 311.06 404.38 C309.98 408.08 308.57 411.47 307 415 C306.67 415.85 306.34 416.69 306 417.56 C305 420 305 420 303.5 422.88 C301.88 426.24 300.94 429.39 300 433 C298.68 433.33 297.36 433.66 296 434 C296.23 434.54 296.45 435.07 296.69 435.62 C297.14 439.06 295.67 441.06 294 444 C293.01 444 292.02 444 291 444 C291.21 444.62 291.41 445.24 291.62 445.88 C291.75 446.58 291.87 447.28 292 448 C291.34 448.66 290.68 449.32 290 450 C288.68 450 287.36 450 286 450 C286.66 450.66 287.32 451.32 288 452 C288 455.6 287.04 457.09 285 460 C284.34 460 283.68 460 283 460 C282.88 460.74 282.75 461.49 282.62 462.25 C282.05 464.8 281.26 466.73 280 469 C279.34 469 278.68 469 278 469 C277.73 469.8 277.46 470.61 277.19 471.44 C276.8 472.28 276.4 473.13 276 474 C275.01 474.33 274.02 474.66 273 475 C272.67 476.98 272.34 478.96 272 481 C271.34 481 270.68 481 270 481 C269.73 481.58 269.45 482.16 269.17 482.76 C265.78 489.25 260.64 495.35 255 500 C254.34 500 253.68 500 253 500 C252.9 500.78 252.79 501.57 252.69 502.38 C252 505 252 505 249 507 C249 506.34 249 505.68 249 505 C248.01 505 247.02 505 246 505 C246 505.99 246 506.98 246 508 C246.66 508.33 247.32 508.66 248 509 C247.67 509.66 247.34 510.32 247 511 C246.34 511 245.68 511 245 511 C244.67 511.99 244.34 512.98 244 514 C243.34 514 242.68 514 242 514 C242 514.66 242 515.32 242 516 C241.34 516 240.68 516 240 516 C239.67 516.99 239.34 517.98 239 519 C238.34 519 237.68 519 237 519 C237 519.66 237 520.32 237 521 C236.34 521 235.68 521 235 521 C234.67 521.99 234.34 522.98 234 524 C233.34 524 232.68 524 232 524 C232 524.66 232 525.32 232 526 C231.01 526.33 230.02 526.66 229 527 C229 526.34 229 525.68 229 525 C228.01 525 227.02 525 226 525 C226 525.99 226 526.98 226 528 C226.66 528.33 227.32 528.66 228 529 C227.27 529.4 226.54 529.8 225.79 530.21 C222 532.65 219.24 535.76 216.18 539.04 C213.96 541.04 212.84 541.44 210 542 C209.67 542.66 209.34 543.32 209 544 C206.94 545.12 206.94 545.12 205 546 C205 546.66 205 547.32 205 548 C204.11 548.41 203.23 548.83 202.31 549.25 C199.15 550.92 196.74 552.72 194 555 C189.25 558.9 186.2 560.15 180 561 C178.68 562.88 178.68 562.88 178 565 C175 567 175 567 171 567 C171 567.66 171 568.32 171 569 C167.27 571.03 165.33 572 161 572 C160.67 572.99 160.34 573.98 160 575 C156.68 576.71 154.82 577 151 577 C151 577.66 151 578.32 151 579 C148.84 580.2 147.06 580.99 144.62 581.44 C141.42 582.12 138.91 583.51 136 585 C134 585.67 132 586.33 130 587 C128.55 587.77 128.55 587.77 127.06 588.56 C123.64 590.17 120.76 590.71 117 591 C116.34 590.67 115.68 590.34 115 590 C115 590.66 115 591.32 115 592 C113.92 592.19 113.92 592.19 112.81 592.38 C110.03 592.99 107.64 593.93 105 595 C101.25 596.25 98.34 597.01 94.38 596.94 C91 596.71 91 596.71 88.56 598.5 C85.46 600.32 83.57 600.19 80.06 599.91 C77.9 599.88 77.9 599.88 75.7 601 C72.28 602.27 69.51 602.12 65.88 602 C60.59 601.69 60.59 601.69 56 604 C53.29 604.25 53.29 604.25 49.98 604.24 C48.75 604.25 47.51 604.25 46.23 604.25 C44.88 604.25 43.53 604.24 42.18 604.23 C40.8 604.23 39.41 604.23 38.03 604.23 C35.13 604.23 32.24 604.22 29.34 604.21 C25.62 604.19 21.9 604.18 18.18 604.19 C15.32 604.19 12.47 604.18 9.61 604.17 C8.24 604.17 6.87 604.17 5.5 604.17 C3.58 604.16 1.67 604.16 -0.24 604.15 C-1.33 604.14 -2.42 604.14 -3.55 604.13 C-6 604 -6 604 -7 603 C-10.12 602.76 -13.24 602.6 -16.37 602.48 C-20.1 602.29 -22.75 601.82 -26 600 C-27.03 600.02 -28.06 600.04 -29.12 600.06 C-33.35 599.99 -36.59 599.07 -40.57 597.75 C-43.04 596.99 -45.47 596.49 -48 596 C-67.34 591.39 -67.34 591.39 -72.88 588.5 C-75.74 587.12 -77.9 586.53 -81 586 C-83.34 585.35 -85.67 584.68 -88 584 C-88 583.34 -88 582.68 -88 582 C-88.72 581.88 -89.44 581.75 -90.19 581.62 C-94.12 580.75 -97.13 579.87 -100 577 C-100.99 577 -101.98 577 -103 577 C-103 576.34 -103 575.68 -103 575 C-103.78 574.88 -104.57 574.75 -105.38 574.62 C-108 574 -108 574 -110 572 C-110.76 571.88 -111.53 571.75 -112.31 571.62 C-115.68 570.84 -117.38 569.22 -120 567 C-122.13 565.8 -124.21 564.92 -126.5 564.06 C-129 563 -129 563 -130.9 561.57 C-132.91 560.06 -134.9 558.92 -137.12 557.75 C-145.01 553.43 -152.11 548.03 -159.09 542.38 C-161.05 540.82 -161.05 540.82 -164 540 C-164 539.01 -164 538.02 -164 537 C-164.66 537 -165.32 537 -166 537 C-166 536.34 -166 535.68 -166 535 C-166.86 534.86 -166.86 534.86 -167.75 534.71 C-170.51 533.84 -171.94 532.53 -174.06 530.56 C-176.34 528.47 -178.42 526.72 -181 525 C-181 524.34 -181 523.68 -181 523 C-181.6 522.74 -182.19 522.49 -182.8 522.22 C-185.2 520.89 -186.43 519.57 -188.12 517.44 C-190.21 514.79 -190.21 514.79 -193 513 C-193 512.34 -193 511.68 -193 511 C-193.66 511 -194.32 511 -195 511 C-197.62 508.69 -197.62 508.69 -200 506 C-200 505.01 -200 504.02 -200 503 C-200.66 503 -201.32 503 -202 503 C-205 499.54 -205 499.54 -205 497 C-205.66 497 -206.32 497 -207 497 C-207 496.34 -207 495.68 -207 495 C-207.66 495 -208.32 495 -209 495 C-209 494.01 -209 493.02 -209 492 C-209.66 492 -210.32 492 -211 492 C-211 491.34 -211 490.68 -211 490 C-211.99 490 -212.98 490 -214 490 C-214.25 489.07 -214.5 488.14 -214.75 487.19 C-216.11 483.72 -217.08 483.07 -220 481 C-220.62 478.88 -220.62 478.88 -221 477 C-221.66 476.67 -222.32 476.34 -223 476 C-225.31 472.49 -227.16 468.77 -229 465 C-229.66 465 -230.32 465 -231 465 C-233.65 461.4 -234.31 458.35 -235 454 C-235.66 453.67 -236.32 453.34 -237 453 C-237.72 451.36 -238.39 449.69 -239 448 C-239.66 448 -240.32 448 -241 448 C-243.35 443.51 -245 440.08 -245 435 C-245.66 435 -246.32 435 -247 435 C-249 432 -249 432 -249 428 C-249.66 428 -250.32 428 -251 428 C-251.24 427.13 -251.48 426.26 -251.73 425.37 C-253.69 418.04 -253.69 418.04 -257.25 411.44 C-259 409 -259 409 -259 405 C-259.66 404.34 -260.32 403.68 -261 403 C-261.73 400.68 -262.38 398.35 -263 396 C-263.33 394.85 -263.66 393.69 -264 392.5 C-264.33 391.35 -264.66 390.19 -265 389 C-265.33 387.89 -265.66 386.77 -266 385.62 C-269.35 373.47 -269.35 373.47 -269 368 C-269.66 368 -270.32 368 -271 368 C-271.12 366.91 -271.25 365.81 -271.38 364.69 C-271.78 361.31 -272.39 358.02 -273.06 354.69 C-274.12 349.09 -274.2 343.68 -274 338 C-274.66 338 -275.32 338 -276 338 C-275.67 337.01 -275.34 336.02 -275 335 C-275.66 333.33 -276.33 331.66 -277 330 C-277.25 327.3 -277.25 327.3 -277.26 324.36 C-277.27 323.25 -277.27 322.14 -277.28 321 C-277.27 319.81 -277.27 318.62 -277.27 317.4 C-277.27 316.18 -277.27 314.95 -277.27 313.69 C-277.27 311.1 -277.27 308.51 -277.26 305.92 C-277.25 301.95 -277.26 297.98 -277.27 294.01 C-277.27 291.5 -277.27 288.98 -277.27 286.46 C-277.27 285.28 -277.27 284.09 -277.28 282.86 C-277.27 281.76 -277.27 280.65 -277.26 279.52 C-277.26 278.54 -277.26 277.57 -277.25 276.57 C-276.99 273.9 -276.31 272.32 -275 270 C-274.66 268.03 -274.66 268.03 -274.62 266 C-274.59 265.26 -274.55 264.51 -274.52 263.75 C-274.49 262.99 -274.46 262.22 -274.44 261.44 C-274.12 253.36 -274.12 253.36 -273 250 C-272.46 247.14 -271.98 244.27 -271.5 241.4 C-271 239 -271 239 -270 238 C-269.82 236.61 -269.68 235.21 -269.56 233.81 C-269.17 229.95 -268.38 226.64 -267 223 C-265.78 219.42 -264.66 215.84 -263.63 212.2 C-262.77 209.21 -261.89 206.23 -261 203.25 C-260.67 202.14 -260.34 201.03 -260 199.89 C-259 197 -259 197 -257 194 C-256.17 191.45 -255.48 188.87 -254.78 186.28 C-254 184 -254 184 -252 182 C-251.36 179.93 -251.36 179.93 -251 178 C-250.34 178 -249.68 178 -249 178 C-249 176.35 -249 174.7 -249 173 C-248.34 173 -247.68 173 -247 173 C-246.67 171.35 -246.34 169.7 -246 168 C-245.34 168 -244.68 168 -244 168 C-244.33 167.01 -244.66 166.02 -245 165 C-243.63 163 -243.63 163 -242 161 C-241.67 160.01 -241.34 159.02 -241 158 C-240.34 158 -239.68 158 -239 158 C-238.9 157.28 -238.79 156.56 -238.69 155.81 C-237.92 152.66 -236.77 150.72 -235 148 C-234.18 146.71 -233.37 145.42 -232.56 144.12 C-232.14 143.45 -231.71 142.77 -231.27 142.07 C-229.44 139.09 -227.72 136.05 -226 133 C-225.34 133 -224.68 133 -224 133 C-223.9 132.42 -223.79 131.85 -223.69 131.25 C-222.72 128.07 -221 125.92 -218.56 123.69 C-216.76 121.87 -216.76 121.87 -215.19 118.69 C-213.73 116.03 -212.21 114.08 -210 112 C-207.82 109.95 -206.34 108.07 -204.94 105.44 C-202.95 101.91 -200.89 99.8 -198 97 C-196.4 95.38 -194.8 93.76 -193.21 92.14 C-191.41 90.32 -189.61 88.5 -187.81 86.69 C-186.9 85.76 -185.98 84.82 -185.04 83.87 C-184.17 82.99 -183.29 82.11 -182.39 81.2 C-181.6 80.39 -180.8 79.59 -179.98 78.76 C-178 77 -178 77 -176 77 C-176 76.34 -176 75.68 -176 75 C-175.2 74.73 -174.39 74.46 -173.56 74.19 C-172.72 73.8 -171.87 73.4 -171 73 C-170.5 71.51 -170.5 71.51 -170 70 C-168.68 70 -167.36 70 -166 70 C-165.74 69.41 -165.48 68.81 -165.21 68.2 C-163.91 65.84 -162.61 64.49 -160.56 62.75 C-159.67 61.97 -159.67 61.97 -158.75 61.17 C-157 60 -157 60 -154 60 C-153.73 59.4 -153.46 58.8 -153.19 58.19 C-151.96 55.93 -151.06 54.53 -149 53 C-146.31 52.81 -146.31 52.81 -144 53 C-143.79 52.4 -143.59 51.8 -143.38 51.19 C-141.45 48.12 -139.29 47.5 -136 46 C-134.51 45.2 -133.04 44.39 -131.56 43.56 C-130.86 43.17 -130.16 42.78 -129.44 42.38 C-127.53 41.3 -125.63 40.21 -123.73 39.12 C-117.58 35.6 -111.28 32.34 -105 29.05 C-103.3 28.16 -101.61 27.25 -99.92 26.34 C-95.19 23.85 -91.35 22.35 -86 22 C-86 21.34 -86 20.68 -86 20 C-85.24 19.81 -84.48 19.61 -83.7 19.41 C-82.21 19.02 -82.21 19.02 -80.69 18.62 C-79.7 18.37 -78.72 18.11 -77.7 17.85 C-74.82 17.08 -74.82 17.08 -72 15 C-68.81 14.88 -68.81 14.88 -66 15 C-66 14.34 -66 13.68 -66 13 C-64.93 12.93 -64.93 12.93 -63.85 12.85 C-62.47 12.74 -62.47 12.74 -61.06 12.62 C-60.15 12.56 -59.23 12.49 -58.29 12.41 C-57.53 12.28 -56.78 12.14 -56 12 C-55.67 11.34 -55.34 10.68 -55 10 C-52.02 9.15 -52.02 9.15 -48.25 8.38 C-47.02 8.11 -45.79 7.85 -44.52 7.59 C-41.58 7.1 -38.97 6.88 -36 7 C-35.67 6.34 -35.34 5.68 -35 5 C-32.67 4.66 -32.67 4.66 -29.75 4.5 C-26.79 4.34 -24.48 4.21 -21.75 3.01 C-17.63 1.5 -13.54 1.53 -9.19 1.38 C-8.3 1.34 -7.42 1.3 -6.51 1.26 C-4.34 1.16 -2.17 1.08 0 1 C0 0.67 0 0.34 0 0 Z M-46 140 C-42 141 -42 141 -42 141 Z M288 154 C289 156 289 156 289 156 Z M-82 160 C-82 160.99 -82 161.98 -82 163 C-81.01 162.67 -80.02 162.34 -79 162 C-79 161.34 -79 160.68 -79 160 C-79.99 160 -80.98 160 -82 160 Z M-108 185 C-108.33 185.99 -108.66 186.98 -109 188 C-108.01 187.67 -107.02 187.34 -106 187 C-106 186.34 -106 185.68 -106 185 C-106.66 185 -107.32 185 -108 185 Z M-119 197 C-117.51 197.99 -117.51 197.99 -116 199 C-116 198.34 -116 197.68 -116 197 C-116.99 197 -117.98 197 -119 197 Z M-123 205 C-122.34 205.66 -121.68 206.32 -121 207 C-121 206.34 -121 205.68 -121 205 C-121.66 205 -122.32 205 -123 205 Z M-132 222 C-131 224 -131 224 -131 224 Z M-139 236 C-138 239 -138 239 -138 239 Z M248 242 C248 242.33 248 242.66 248 243 C251.3 243 254.6 243 258 243 C258 242.67 258 242.34 258 242 C254.7 242 251.4 242 248 242 Z M301 421 C302 423 302 423 302 423 Z M298 430 C299 432 299 432 299 432 Z M270 478 C271 480 271 480 271 480 Z M242 508 C241.67 509.65 241.34 511.3 241 513 C241.99 512.67 242.98 512.34 244 512 C244 510.68 244 509.36 244 508 C243.34 508 242.68 508 242 508 Z M232 520 C231.67 520.99 231.34 521.98 231 523 C231.99 522.67 232.98 522.34 234 522 C234 521.34 234 520.68 234 520 C233.34 520 232.68 520 232 520 Z M-40 595 C-39 597 -39 597 -39 597 Z " fill="#005A8E" transform="translate(361,337)"/>
<path d="M0 0 C1.32 0.33 2.64 0.66 4 1 C-6.23 11.23 -16.46 21.46 -27 32 C-27.66 31.34 -28.32 30.68 -29 30 C-23.69 23.73 -18.06 17.79 -12.29 11.94 C-11.3 10.93 -10.3 9.91 -9.32 8.88 C-7.88 7.39 -6.42 5.91 -4.96 4.43 C-4.1 3.56 -3.24 2.68 -2.36 1.78 C-1.58 1.19 -0.8 0.6 0 0 Z " fill="#0E3369" transform="translate(555,717)"/>
<path d="M0 0 C0.66 0.66 1.32 1.32 2 2 C-5.92 9.92 -13.84 17.84 -22 26 C-22.66 25.34 -23.32 24.68 -24 24 C-19.33 18.41 -14.33 13.22 -9.19 8.06 C-8.52 7.39 -7.85 6.71 -7.16 6.02 C-6.52 5.38 -5.89 4.75 -5.23 4.1 C-4.66 3.53 -4.08 2.95 -3.49 2.36 C-2 1 -2 1 0 0 Z " fill="#0F3065" transform="translate(185,413)"/>
<path d="M0 0 C0.66 0.66 1.32 1.32 2 2 C-0.31 3.65 -2.62 5.3 -5 7 C-5 6.34 -5 5.68 -5 5 C-5.66 4.67 -6.32 4.34 -7 4 C-5.82 3.57 -5.82 3.57 -4.62 3.12 C-1.9 2.15 -1.9 2.15 0 0 Z M-33 30 C-31.68 30.66 -30.36 31.32 -29 32 C-29.95 33.01 -30.91 34 -31.88 35 C-32.41 35.56 -32.94 36.11 -33.49 36.69 C-35 38 -35 38 -37 38 C-36.4 34.64 -35.15 32.62 -33 30 Z " fill="#07467A" transform="translate(192,408)"/>
<path d="M0 0 C0.66 0.33 1.32 0.66 2 1 C-0.62 3.67 -3.24 6.34 -5.88 9 C-6.62 9.76 -7.37 10.53 -8.14 11.31 C-8.85 12.03 -9.57 12.76 -10.3 13.5 C-11.29 14.51 -11.29 14.51 -12.3 15.53 C-14 17 -14 17 -16 17 C-15.51 12.76 -14.46 11.02 -11.19 8.31 C-10.16 7.44 -10.16 7.44 -9.11 6.55 C-7.13 5.1 -5.2 4.07 -3 3 C-1.29 1.46 -1.29 1.46 0 0 Z " fill="#0C376C" transform="translate(509,766)"/>
<path d="M0 0 C1.67 1.43 3.33 2.86 5 4.29 C6.27 5.37 7.55 6.44 8.85 7.49 C13.06 10.92 16 14.46 19 19 C16 19 16 19 14.39 17.76 C13.87 17.22 13.35 16.68 12.81 16.12 C12.28 15.59 11.75 15.06 11.21 14.51 C10 13 10 13 10 11 C9.34 11 8.68 11 8 11 C4.65 7.92 1.78 4.6 -1 1 C-0.67 0.67 -0.34 0.34 0 0 Z " fill="#161E54" transform="translate(498,502)"/>
<path d="M0 0 C6.78 5.55 12.86 11.76 19 18 C18.34 18.66 17.68 19.32 17 20 C17 19.34 17 18.68 17 18 C16.4 17.74 15.81 17.49 15.2 17.22 C12.8 15.89 11.57 14.57 9.88 12.44 C7.79 9.79 7.79 9.79 5 8 C5 7.34 5 6.68 5 6 C4.34 6 3.68 6 3 6 C1.62 4.37 0.28 2.71 -1 1 C-0.67 0.67 -0.34 0.34 0 0 Z " fill="#161E54" transform="translate(163,842)"/>
<path d="M0 0 C12.87 0 25.74 0 39 0 C39 0.33 39 0.66 39 1 C26.13 1 13.26 1 0 1 C0 0.67 0 0.34 0 0 Z " fill="#FDFDFD" transform="translate(367,942)"/>
<path d="M0 0 C0 3 0 3 -1.64 4.79 C-2.36 5.39 -3.08 6 -3.81 6.62 C-4.52 7.24 -5.23 7.85 -5.96 8.48 C-8 10 -8 10 -11 11 C-10.45 7.2 -8.95 5.69 -6.06 3.25 C-5.35 2.64 -4.64 2.02 -3.91 1.39 C-2 0 -2 0 0 0 Z " fill="#0C396E" transform="translate(206,397)"/>
<path d="M0 0 C0.33 0 0.66 0 1 0 C1 7.92 1 15.84 1 24 C0.67 24 0.34 24 0 24 C0 16.08 0 8.16 0 0 Z " fill="#FDFDFD" transform="translate(1195,628)"/>
<path d="M0 0 C7.26 0 14.52 0 22 0 C22 0.33 22 0.66 22 1 C14.74 1 7.48 1 0 1 C0 0.67 0 0.34 0 0 Z " fill="#FDFDFD" transform="translate(594,665)"/>
<path d="M0 0 C6.93 0 13.86 0 21 0 C21 0.33 21 0.66 21 1 C14.07 1 7.14 1 0 1 C0 0.67 0 0.34 0 0 Z " fill="#FDFDFD" transform="translate(951,875)"/>
<path d="M0 0 C0.33 0 0.66 0 1 0 C1 5.94 1 11.88 1 18 C0.67 18 0.34 18 0 18 C0 12.06 0 6.12 0 0 Z " fill="#FDFDFD" transform="translate(212,642)"/>
<path d="M0 0 C0.33 0 0.66 0 1 0 C1 5.61 1 11.22 1 17 C0.67 17 0.34 17 0 17 C0 11.39 0 5.78 0 0 Z " fill="#FDFDFD" transform="translate(212,621)"/>
<path d="M0 0 C0.33 0 0.66 0 1 0 C1 4.95 1 9.9 1 15 C0.67 15 0.34 15 0 15 C0 10.05 0 5.1 0 0 Z " fill="#FDFDFD" transform="translate(855,634)"/>
<path d="M0 0 C4.62 0 9.24 0 14 0 C14 0.33 14 0.66 14 1 C9.38 1 4.76 1 0 1 C0 0.67 0 0.34 0 0 Z " fill="#FDFDFD" transform="translate(388,465)"/>
<path d="M0 0 C4.62 0 9.24 0 14 0 C14 0.33 14 0.66 14 1 C9.38 1 4.76 1 0 1 C0 0.67 0 0.34 0 0 Z " fill="#FDFDFD" transform="translate(371,465)"/>
<path d="M0 0 C3.3 0 6.6 0 10 0 C10 0.33 10 0.66 10 1 C6.7 1 3.4 1 0 1 C0 0.67 0 0.34 0 0 Z " fill="#FDFDFD" transform="translate(382,782)"/>
<path d="M0 0 C2.97 0 5.94 0 9 0 C9 0.33 9 0.66 9 1 C6.03 1 3.06 1 0 1 C0 0.67 0 0.34 0 0 Z " fill="#FDFDFD" transform="translate(919,872)"/>
<path d="M0 0 C0.66 0.33 1.32 0.66 2 1 C0.35 2.32 -1.3 3.64 -3 5 C-1.12 1.12 -1.12 1.12 0 0 Z " fill="#093F74" transform="translate(509,763)"/>
<path d="M0 0 C0.66 0.33 1.32 0.66 2 1 C0.35 2.32 -1.3 3.64 -3 5 C-1.12 1.12 -1.12 1.12 0 0 Z " fill="#093F74" transform="translate(514,758)"/>
<path d="M0 0 C2.31 0 4.62 0 7 0 C7 0.33 7 0.66 7 1 C4.69 1 2.38 1 0 1 C0 0.67 0 0.34 0 0 Z " fill="#FDFDFD" transform="translate(419,940)"/>
<path d="M0 0 C1.98 0 3.96 0 6 0 C6 0.33 6 0.66 6 1 C4.02 1 2.04 1 0 1 C0 0.67 0 0.34 0 0 Z " fill="#FDFDFD" transform="translate(348,940)"/>
<path d="M0 0 C1.98 0 3.96 0 6 0 C6 0.33 6 0.66 6 1 C4.02 1 2.04 1 0 1 C0 0.67 0 0.34 0 0 Z " fill="#FDFDFD" transform="translate(439,937)"/>
<path d="M0 0 C1.98 0 3.96 0 6 0 C6 0.33 6 0.66 6 1 C4.02 1 2.04 1 0 1 C0 0.67 0 0.34 0 0 Z " fill="#FDFDFD" transform="translate(627,667)"/>
<path d="M0 0 C0.33 0 0.66 0 1 0 C1 1.98 1 3.96 1 6 C0.67 6 0.34 6 0 6 C0 4.02 0 2.04 0 0 Z " fill="#FDFDFD" transform="translate(857,657)"/>
<path d="M0 0 C1.65 0 3.3 0 5 0 C5 0.33 5 0.66 5 1 C3.35 1 1.7 1 0 1 C0 0.67 0 0.34 0 0 Z " fill="#FDFDFD" transform="translate(411,780)"/>
<path d="M0 0 C1.65 0 3.3 0 5 0 C5 0.33 5 0.66 5 1 C3.35 1 1.7 1 0 1 C0 0.67 0 0.34 0 0 Z " fill="#FDFDFD" transform="translate(364,780)"/>
<path d="M0 0 C0.66 0.33 1.32 0.66 2 1 C1.01 1.66 0.02 2.32 -1 3 C-0.67 2.01 -0.34 1.02 0 0 Z " fill="#084277" transform="translate(504,768)"/>
<path d="M0 0 C0.66 0.33 1.32 0.66 2 1 C1.01 1.66 0.02 2.32 -1 3 C-0.67 2.01 -0.34 1.02 0 0 Z " fill="#084277" transform="translate(519,753)"/>
<path d="M0 0 C1.65 0 3.3 0 5 0 C5 0.33 5 0.66 5 1 C3.35 1 1.7 1 0 1 C0 0.67 0 0.34 0 0 Z " fill="#FDFDFD" transform="translate(621,580)"/>
<path d="M0 0 C1.65 0 3.3 0 5 0 C5 0.33 5 0.66 5 1 C3.35 1 1.7 1 0 1 C0 0.67 0 0.34 0 0 Z " fill="#FDFDFD" transform="translate(584,580)"/>
<path d="M0 0 C4 1 4 1 4 1 Z " fill="#FDFDFD" transform="translate(307,932)"/>
<path d="M0 0 C4 1 4 1 4 1 Z " fill="#FDFDFD" transform="translate(894,867)"/>
<path d="M0 0 C4 1 4 1 4 1 Z " fill="#FDFDFD" transform="translate(349,777)"/>
<path d="M0 0 C1 4 1 4 1 4 Z " fill="#FDFDFD" transform="translate(215,673)"/>
<path d="M0 0 C3 1 3 1 3 1 Z " fill="#FDFDFD" transform="translate(451,935)"/>
<path d="M0 0 C3 1 3 1 3 1 Z " fill="#161E54" transform="translate(541,898)"/>
<path d="" fill="#FDFDFD" transform="translate(0,0)"/>
<path d="M0 0 C0.33 0.66 0.66 1.32 1 2 C0.34 1.67 -0.32 1.34 -1 1 C-0.67 0.67 -0.34 0.34 0 0 Z " fill="#161E54" transform="translate(887,563)"/>
<path d="M0 0 C3 1 3 1 3 1 Z " fill="#FDFDFD" transform="translate(990,537)"/>
<path d="M0 0 C3 1 3 1 3 1 Z " fill="#FDFDFD" transform="translate(981,535)"/>
<path d="M0 0 C3 1 3 1 3 1 Z " fill="#FDFDFD" transform="translate(941,535)"/>
<path d="M0 0 C0.33 0.66 0.66 1.32 1 2 C0.34 1.67 -0.32 1.34 -1 1 C-0.67 0.67 -0.34 0.34 0 0 Z " fill="#161E54" transform="translate(262,516)"/>
<path d="M0 0 C3 1 3 1 3 1 Z " fill="#161E54" transform="translate(296,488)"/>
<path d="M0 0 C2 1 2 1 2 1 Z " fill="#FDFDFD" transform="translate(335,937)"/>
<path d="M0 0 C2 1 2 1 2 1 Z " fill="#FDFDFD" transform="translate(464,932)"/>
<path d="M0 0 C2 1 2 1 2 1 Z " fill="#FDFDFD" transform="translate(471,930)"/>
<path d="M0 0 C2 1 2 1 2 1 Z " fill="#FDFDFD" transform="translate(481,927)"/>
<path d="M0 0 C2 1 2 1 2 1 Z " fill="#FDFDFD" transform="translate(998,872)"/>
<path d="M0 0 C2 1 2 1 2 1 Z " fill="#FDFDFD" transform="translate(909,870)"/>
<path d="M0 0 C2 1 2 1 2 1 Z " fill="#FDFDFD" transform="translate(887,865)"/>
<path d="M0 0 C2 1 2 1 2 1 Z " fill="#161E54" transform="translate(308,795)"/>
<path d="" fill="#161E54" transform="translate(0,0)"/>
<path d="" fill="#FDFDFD" transform="translate(0,0)"/>
<path d="" fill="#FDFDFD" transform="translate(0,0)"/>
<path d="" fill="#EA6906" transform="translate(0,0)"/>
<path d="M0 0 C2 1 2 1 2 1 Z " fill="#161E54" transform="translate(648,705)"/>
<path d="M0 0 C2 1 2 1 2 1 Z " fill="#005B8F" transform="translate(604,697)"/>
<path d="M0 0 C2 1 2 1 2 1 Z " fill="#161E54" transform="translate(655,570)"/>
<path d="M0 0 C2 1 2 1 2 1 Z " fill="#FDFDFD" transform="translate(661,567)"/>
<path d="" fill="#FDFDFD" transform="translate(0,0)"/>
<path d="" fill="#FDFDFD" transform="translate(0,0)"/>
<path d="" fill="#161E54" transform="translate(0,0)"/>
<path d="" fill="#FDFDFD" transform="translate(0,0)"/>
<path d="" fill="#161E54" transform="translate(0,0)"/>
<path d="" fill="#FDFDFD" transform="translate(0,0)"/>
<path d="" fill="#FDFDFD" transform="translate(0,0)"/>
<path d="" fill="#161E54" transform="translate(0,0)"/>
<path d="" fill="#FDFDFD" transform="translate(0,0)"/>
<path d="" fill="#FDFDFD" transform="translate(0,0)"/>
<path d="" fill="#FDFDFD" transform="translate(0,0)"/>
<path d="" fill="#FDFDFD" transform="translate(0,0)"/>
<path d="" fill="#FDFDFD" transform="translate(0,0)"/>
<path d="" fill="#FDFDFD" transform="translate(0,0)"/>
<path d="" fill="#FDFDFD" transform="translate(0,0)"/>
<path d="" fill="#FDFDFD" transform="translate(0,0)"/>
<path d="" fill="#FDFDFD" transform="translate(0,0)"/>
<path d="" fill="#FDFDFD" transform="translate(0,0)"/>
<path d="" fill="#FDFDFD" transform="translate(0,0)"/>
<path d="" fill="#FDFDFD" transform="translate(0,0)"/>
<path d="" fill="#FDFDFD" transform="translate(0,0)"/>
<path d="" fill="#FDFDFD" transform="translate(0,0)"/>
<path d="" fill="#FDFDFD" transform="translate(0,0)"/>
<path d="" fill="#FDFDFD" transform="translate(0,0)"/>
<path d="" fill="#161E54" transform="translate(0,0)"/>
<path d="" fill="#FDFDFD" transform="translate(0,0)"/>
<path d="" fill="#FDFDFD" transform="translate(0,0)"/>
<path d="" fill="#FDFDFD" transform="translate(0,0)"/>
<path d="" fill="#FDFDFD" transform="translate(0,0)"/>
<path d="" fill="#FDFDFD" transform="translate(0,0)"/>
<path d="" fill="#FDFDFD" transform="translate(0,0)"/>
<path d="" fill="#FDFDFD" transform="translate(0,0)"/>
<path d="" fill="#161E54" transform="translate(0,0)"/>
<path d="" fill="#161E54" transform="translate(0,0)"/>
<path d="" fill="#FDFDFD" transform="translate(0,0)"/>
<path d="" fill="#FDFDFD" transform="translate(0,0)"/>
<path d="" fill="#161E54" transform="translate(0,0)"/>
<path d="" fill="#161E54" transform="translate(0,0)"/>
<path d="" fill="#161E54" transform="translate(0,0)"/>
<path d="" fill="#005B8F" transform="translate(0,0)"/>
<path d="" fill="#EA6906" transform="translate(0,0)"/>
<path d="" fill="#161E54" transform="translate(0,0)"/>
<path d="" fill="#161E54" transform="translate(0,0)"/>
<path d="" fill="#FDFDFD" transform="translate(0,0)"/>
<path d="" fill="#161E54" transform="translate(0,0)"/>
<path d="" fill="#161E54" transform="translate(0,0)"/>
<path d="" fill="#161E54" transform="translate(0,0)"/>
<path d="" fill="#EA6906" transform="translate(0,0)"/>
<path d="" fill="#FDFDFD" transform="translate(0,0)"/>
<path d="" fill="#161E54" transform="translate(0,0)"/>
<path d="" fill="#161E54" transform="translate(0,0)"/>
<path d="" fill="#FDFDFD" transform="translate(0,0)"/>
<path d="" fill="#161E54" transform="translate(0,0)"/>
<path d="" fill="#161E54" transform="translate(0,0)"/>
<path d="" fill="#161E54" transform="translate(0,0)"/>
<path d="" fill="#FDFDFD" transform="translate(0,0)"/>
<path d="" fill="#161E54" transform="translate(0,0)"/>
<path d="" fill="#FDFDFD" transform="translate(0,0)"/>
<path d="" fill="#161E54" transform="translate(0,0)"/>
<path d="" fill="#FDFDFD" transform="translate(0,0)"/>
<path d="" fill="#161E54" transform="translate(0,0)"/>
<path d="" fill="#FDFDFD" transform="translate(0,0)"/>
<path d="" fill="#FDFDFD" transform="translate(0,0)"/>
<path d="" fill="#161E54" transform="translate(0,0)"/>
<path d="" fill="#161E54" transform="translate(0,0)"/>
<path d="" fill="#EA6906" transform="translate(0,0)"/>
<path d="" fill="#FDFDFD" transform="translate(0,0)"/>
<path d="" fill="#FDFDFD" transform="translate(0,0)"/>
<path d="" fill="#FDFDFD" transform="translate(0,0)"/>
<path d="" fill="#EA6906" transform="translate(0,0)"/>
<path d="" fill="#EA6906" transform="translate(0,0)"/>
<path d="" fill="#161E54" transform="translate(0,0)"/>
<path d="" fill="#FDFDFD" transform="translate(0,0)"/>
<path d="" fill="#EA6906" transform="translate(0,0)"/>
<path d="" fill="#161E54" transform="translate(0,0)"/>
<path d="" fill="#EA6906" transform="translate(0,0)"/>
<path d="" fill="#EA6906" transform="translate(0,0)"/>
<path d="" fill="#EA6906" transform="translate(0,0)"/>
<path d="" fill="#161E54" transform="translate(0,0)"/>
<path d="" fill="#FDFDFD" transform="translate(0,0)"/>
<path d="" fill="#161E54" transform="translate(0,0)"/>
<path d="" fill="#EA6906" transform="translate(0,0)"/>
<path d="" fill="#EA6906" transform="translate(0,0)"/>
<path d="" fill="#161E54" transform="translate(0,0)"/>
<path d="" fill="#FDFDFD" transform="translate(0,0)"/>
<path d="" fill="#161E54" transform="translate(0,0)"/>
<path d="" fill="#161E54" transform="translate(0,0)"/>
<path d="" fill="#EA6906" transform="translate(0,0)"/>
<path d="" fill="#005B8F" transform="translate(0,0)"/>
<path d="" fill="#FDFDFD" transform="translate(0,0)"/>
<path d="" fill="#EA6906" transform="translate(0,0)"/>
<path d="" fill="#161E54" transform="translate(0,0)"/>
<path d="" fill="#FDFDFD" transform="translate(0,0)"/>
<path d="" fill="#FDFDFD" transform="translate(0,0)"/>
<path d="" fill="#161E54" transform="translate(0,0)"/>
<path d="" fill="#FDFDFD" transform="translate(0,0)"/>
<path d="" fill="#FDFDFD" transform="translate(0,0)"/>
<path d="" fill="#FDFDFD" transform="translate(0,0)"/>
<path d="" fill="#FDFDFD" transform="translate(0,0)"/>
<path d="" fill="#FDFDFD" transform="translate(0,0)"/>
<path d="" fill="#EA6906" transform="translate(0,0)"/>
<path d="" fill="#EA6906" transform="translate(0,0)"/>
<path d="" fill="#EA6906" transform="translate(0,0)"/>
<path d="" fill="#FDFDFD" transform="translate(0,0)"/>
<path d="" fill="#EA6906" transform="translate(0,0)"/>
<path d="" fill="#EA6906" transform="translate(0,0)"/>
<path d="" fill="#FDFDFD" transform="translate(0,0)"/>
<path d="" fill="#EA6906" transform="translate(0,0)"/>
<path d="" fill="#FDFDFD" transform="translate(0,0)"/>
<path d="" fill="#EA6906" transform="translate(0,0)"/>
<path d="" fill="#161E54" transform="translate(0,0)"/>
<path d="" fill="#FDFDFD" transform="translate(0,0)"/>
<path d="" fill="#EA6906" transform="translate(0,0)"/>
<path d="" fill="#FDFDFD" transform="translate(0,0)"/>
<path d="" fill="#161E54" transform="translate(0,0)"/>
<path d="" fill="#FDFDFD" transform="translate(0,0)"/>
<path d="" fill="#EA6906" transform="translate(0,0)"/>
<path d="" fill="#FDFDFD" transform="translate(0,0)"/>
<path d="" fill="#161E54" transform="translate(0,0)"/>
<path d="" fill="#FDFDFD" transform="translate(0,0)"/>
<path d="" fill="#EA6906" transform="translate(0,0)"/>
<path d="" fill="#161E54" transform="translate(0,0)"/>
<path d="" fill="#161E54" transform="translate(0,0)"/>
<path d="" fill="#FDFDFD" transform="translate(0,0)"/>
<path d="" fill="#EA6906" transform="translate(0,0)"/>
<path d="" fill="#EA6906" transform="translate(0,0)"/>
<path d="" fill="#EA6906" transform="translate(0,0)"/>
<path d="" fill="#161E54" transform="translate(0,0)"/>
<path d="" fill="#FDFDFD" transform="translate(0,0)"/>
<path d="" fill="#FDFDFD" transform="translate(0,0)"/>
<path d="" fill="#FDFDFD" transform="translate(0,0)"/>
<path d="" fill="#EA6906" transform="translate(0,0)"/>
<path d="" fill="#FDFDFD" transform="translate(0,0)"/>
<path d="" fill="#FDFDFD" transform="translate(0,0)"/>
<path d="" fill="#FDFDFD" transform="translate(0,0)"/>
<path d="" fill="#FDFDFD" transform="translate(0,0)"/>
<path d="" fill="#FDFDFD" transform="translate(0,0)"/>
<path d="" fill="#EA6906" transform="translate(0,0)"/>
<path d="" fill="#161E54" transform="translate(0,0)"/>
<path d="" fill="#161E54" transform="translate(0,0)"/>
<path d="" fill="#FDFDFD" transform="translate(0,0)"/>
<path d="" fill="#161E54" transform="translate(0,0)"/>
<path d="" fill="#161E54" transform="translate(0,0)"/>
<path d="" fill="#FDFDFD" transform="translate(0,0)"/>
<path d="" fill="#FDFDFD" transform="translate(0,0)"/>
<path d="" fill="#EA6906" transform="translate(0,0)"/>
<path d="" fill="#EA6906" transform="translate(0,0)"/>
<path d="" fill="#EA6906" transform="translate(0,0)"/>
<path d="" fill="#FDFDFD" transform="translate(0,0)"/>
<path d="" fill="#EA6906" transform="translate(0,0)"/>
<path d="" fill="#FDFDFD" transform="translate(0,0)"/>
<path d="" fill="#161E54" transform="translate(0,0)"/>
<path d="" fill="#FDFDFD" transform="translate(0,0)"/>
<path d="" fill="#EA6906" transform="translate(0,0)"/>
<path d="" fill="#EA6906" transform="translate(0,0)"/>
<path d="" fill="#161E54" transform="translate(0,0)"/>
<path d="" fill="#FDFDFD" transform="translate(0,0)"/>
<path d="" fill="#FDFDFD" transform="translate(0,0)"/>
<path d="" fill="#FDFDFD" transform="translate(0,0)"/>
<path d="" fill="#FDFDFD" transform="translate(0,0)"/>
<path d="" fill="#FDFDFD" transform="translate(0,0)"/>
<path d="" fill="#FDFDFD" transform="translate(0,0)"/>
<path d="" fill="#FDFDFD" transform="translate(0,0)"/>
<path d="" fill="#161E54" transform="translate(0,0)"/>
<path d="" fill="#005B8F" transform="translate(0,0)"/>
<path d="" fill="#161E54" transform="translate(0,0)"/>
<path d="" fill="#EA6906" transform="translate(0,0)"/>
<path d="" fill="#EA6906" transform="translate(0,0)"/>
<path d="" fill="#161E54" transform="translate(0,0)"/>
<path d="" fill="#EA6906" transform="translate(0,0)"/>
<path d="" fill="#161E54" transform="translate(0,0)"/>
<path d="" fill="#EA6906" transform="translate(0,0)"/>
<path d="" fill="#161E54" transform="translate(0,0)"/>
<path d="" fill="#EA6906" transform="translate(0,0)"/>
<path d="" fill="#161E54" transform="translate(0,0)"/>
<path d="" fill="#161E54" transform="translate(0,0)"/>
<path d="" fill="#161E54" transform="translate(0,0)"/>
<path d="" fill="#EA6906" transform="translate(0,0)"/>
<path d="" fill="#161E54" transform="translate(0,0)"/>
<path d="" fill="#FDFDFD" transform="translate(0,0)"/>
<path d="" fill="#EA6906" transform="translate(0,0)"/>
<path d="" fill="#161E54" transform="translate(0,0)"/>
<path d="" fill="#005B8F" transform="translate(0,0)"/>
<path d="" fill="#161E54" transform="translate(0,0)"/>
<path d="" fill="#EA6906" transform="translate(0,0)"/>
<path d="" fill="#161E54" transform="translate(0,0)"/>
<path d="" fill="#161E54" transform="translate(0,0)"/>
<path d="" fill="#161E54" transform="translate(0,0)"/>
<path d="" fill="#161E54" transform="translate(0,0)"/>
<path d="" fill="#161E54" transform="translate(0,0)"/>
<path d="" fill="#161E54" transform="translate(0,0)"/>
<path d="" fill="#161E54" transform="translate(0,0)"/>
<path d="" fill="#161E54" transform="translate(0,0)"/>
<path d="" fill="#161E54" transform="translate(0,0)"/>
<path d="" fill="#161E54" transform="translate(0,0)"/>
<path d="" fill="#161E54" transform="translate(0,0)"/>
<path d="" fill="#161E54" transform="translate(0,0)"/>
<path d="" fill="#161E54" transform="translate(0,0)"/>
<path d="" fill="#161E54" transform="translate(0,0)"/>
</svg>
