<svg version="1.1" id="Layer_1" xmlns="http://www.w3.org/2000/svg" xmlns:xlink="http://www.w3.org/1999/xlink" x="0px" y="0px"
	 width="100%" viewBox="0 0 720 720" enable-background="new 0 0 720 720" xml:space="preserve">
<path fill="#FEFEFE" opacity="1.000000" stroke="none" 
	d="
M399.000000,721.000000 
	C267.500000,721.000000 136.499985,720.981384 5.500081,721.094238 
	C1.750535,721.097473 0.904957,720.249207 0.906598,716.499939 
	C1.010331,479.500000 1.010331,242.500000 0.906598,5.500041 
	C0.904957,1.750811 1.750811,0.904955 5.500041,0.906597 
	C242.500000,1.010344 479.500000,1.010344 716.499939,0.906597 
	C720.249207,0.904955 721.095032,1.750810 721.093445,5.500041 
	C720.989685,242.500000 720.989685,479.500000 721.093384,716.499939 
	C721.095032,720.249207 720.249634,721.098877 716.499878,721.094666 
	C610.833313,720.976929 505.166656,721.000000 399.000000,721.000000 
z"/>
<path fill="#ED6B01" opacity="1.000000" stroke="none" 
	d="
M530.249634,136.135086 
	C555.409485,132.191177 579.641846,134.238708 602.854309,143.614380 
	C651.383911,163.215866 681.966309,198.718750 690.583374,250.381714 
	C698.948608,300.535126 685.021667,345.074432 646.195435,378.934601 
	C615.046814,406.099091 577.893127,417.604248 535.985901,413.503540 
	C499.238129,409.907684 470.143707,393.118225 445.968079,366.112762 
	C431.962006,350.467194 419.506653,333.530273 405.222260,318.120544 
	C389.568512,301.233551 371.131989,290.445312 347.619232,288.649628 
	C326.613770,287.045441 308.885773,293.377411 294.156433,308.152008 
	C285.338135,316.997406 277.077515,326.399261 268.247223,335.232117 
	C257.950928,345.531372 246.036133,353.352295 231.512344,356.311462 
	C175.649841,367.693420 134.644379,332.764984 126.434074,288.742676 
	C114.876030,226.770309 175.104309,174.194550 235.023758,193.311646 
	C252.015945,198.732941 265.202026,208.333038 276.035217,221.964966 
	C279.973236,226.920349 284.245941,231.615723 288.072510,236.652618 
	C299.517212,251.717239 315.114532,257.900482 333.511169,259.035828 
	C364.629242,260.956299 390.404236,250.555176 410.359497,226.491318 
	C421.628326,212.902283 432.389404,198.891937 443.671021,185.313843 
	C458.497620,167.469162 476.344482,153.478149 498.120331,145.051941 
	C508.361877,141.088959 518.974426,138.160095 530.249634,136.135086 
z"/>
<path fill="#0D5D92" opacity="1.000000" stroke="none" 
	d="
M317.807983,234.390259 
	C311.185120,231.128815 306.424591,226.275024 302.115753,220.911911 
	C294.079865,210.909775 286.040649,200.906677 276.416351,192.340302 
	C246.296326,165.531052 186.255844,156.019608 142.297684,192.919098 
	C85.982460,240.191422 93.513504,327.659149 156.884735,365.227600 
	C190.953827,385.424835 249.923523,387.162262 284.572937,348.601074 
	C291.584747,340.797668 298.923279,333.288147 306.099030,325.631775 
	C327.791809,302.485931 361.377655,306.790344 379.831451,322.830048 
	C382.031006,324.741852 382.759399,326.275452 381.772614,329.108765 
	C361.819092,386.400970 323.541412,425.854309 266.142242,445.526184 
	C186.841080,472.704254 97.828972,439.393890 54.927677,366.707184 
	C24.645952,315.401550 19.627644,260.909210 42.627483,206.111450 
	C69.704338,141.600082 119.387550,103.426460 189.221085,95.142860 
	C252.215714,87.670502 304.975250,109.740456 347.072296,157.136124 
	C363.235168,175.333389 374.227722,196.474197 382.028931,219.411026 
	C383.133759,222.659363 382.504333,224.475082 379.646118,226.369980 
	C360.442383,239.101395 339.956635,241.642960 317.807983,234.390259 
z"/>
<path fill="#EE6E06" opacity="1.000000" stroke="none" 
	d="
M585.651489,533.395264 
	C582.350525,536.188904 582.318848,540.515076 581.038391,544.296692 
	C577.516968,554.697021 574.265076,565.191406 571.087280,575.703308 
	C570.336304,578.187744 569.225830,579.068359 566.577698,579.127380 
	C554.562622,579.395142 554.593811,579.477356 550.903015,568.253296 
	C544.192749,547.846497 537.530334,527.423096 530.638123,507.077698 
	C529.265076,503.024506 529.526550,501.337830 534.335815,501.803253 
	C538.786621,502.233948 544.126587,500.635712 547.546265,502.596741 
	C551.133240,504.653717 550.715393,510.635986 552.020386,514.892090 
	C555.575317,526.486816 558.815125,538.178162 563.122070,549.945251 
	C565.421631,543.106995 567.731934,536.272278 570.018005,529.429565 
	C572.707336,521.379822 575.536438,513.371155 577.966980,505.243652 
	C578.834961,502.341278 580.391296,501.397736 583.005920,501.910278 
	C586.179626,502.532440 590.382080,499.713501 592.145203,505.176208 
	C596.642212,519.109863 601.450806,532.943054 606.137573,546.815430 
	C606.552551,548.043640 606.987976,549.264954 607.820618,551.658691 
	C610.760315,541.382996 613.399048,532.177307 616.026794,522.968506 
	C617.760864,516.891479 619.553650,510.829712 621.164490,504.720062 
	C621.734192,502.559204 622.816101,501.749207 625.024048,501.841370 
	C630.165955,502.055878 635.315063,502.098541 640.461243,502.210815 
	C640.329285,507.261627 637.986938,511.716736 636.484314,516.370667 
	C630.147522,535.996582 623.502014,555.523071 617.218445,575.165649 
	C616.193726,578.368896 614.703247,579.147888 611.585144,579.127930 
	C600.438599,579.056519 600.396301,579.180237 596.932312,568.431274 
	C593.206543,556.870117 589.569336,545.280334 585.651489,533.395264 
z"/>
<path fill="#EE6E06" opacity="1.000000" stroke="none" 
	d="
M517.089722,567.076050 
	C496.373444,587.767395 462.849518,583.581787 450.136566,559.009949 
	C442.076874,543.432007 445.362640,524.080872 458.173126,511.679382 
	C470.959076,499.301636 491.323334,496.731750 506.748535,505.549408 
	C521.964172,514.247314 529.771118,532.027466 526.063232,549.081177 
	C524.609924,555.765503 521.662048,561.602173 517.089722,567.076050 
z"/>
<path fill="#EE6C03" opacity="1.000000" stroke="none" 
	d="
M670.451294,562.781494 
	C681.405884,562.788757 691.903503,562.872253 702.398254,562.737061 
	C705.187134,562.701172 706.057922,563.517761 706.141052,566.379395 
	C706.509216,579.051575 706.606384,579.048767 694.021729,579.048706 
	C680.859375,579.048706 667.696045,578.960144 654.535461,579.111572 
	C651.297974,579.148743 649.848938,578.610901 649.877197,574.848145 
	C650.050110,551.857056 650.008362,528.863770 649.908081,505.871735 
	C649.895264,502.948975 650.532104,501.854431 653.741882,501.794647 
	C667.325195,501.541687 667.323059,501.423401 667.322998,515.075989 
	C667.322937,529.404602 667.295898,543.733398 667.354431,558.061768 
	C667.362366,560.003296 666.376587,562.749084 670.451294,562.781494 
z"/>
<path fill="#166396" opacity="1.000000" stroke="none" 
	d="
M280.742767,532.782837 
	C294.358826,516.431396 319.145081,518.332031 327.727600,536.107666 
	C328.515472,537.739441 329.087280,539.509888 329.516388,541.275024 
	C332.654938,554.184875 331.777863,555.300964 318.713165,555.301086 
	C309.223419,555.301208 299.733643,555.280029 290.243988,555.310730 
	C285.276825,555.326782 284.659912,556.262451 286.836121,560.828857 
	C289.603699,566.636108 294.158569,570.187012 300.620850,571.086609 
	C308.317139,572.158020 315.525146,570.564270 322.297485,566.910889 
	C323.963318,566.012207 325.623718,564.560791 326.441925,567.499695 
	C327.025665,569.596436 331.115326,571.622009 326.937256,574.039307 
	C315.189819,580.836121 302.826050,583.186157 290.241821,577.067139 
	C274.579315,569.451355 270.337494,549.117310 280.742767,532.782837 
z"/>
<path fill="#176497" opacity="1.000000" stroke="none" 
	d="
M79.493942,558.189758 
	C77.294296,545.250061 80.357452,534.490479 90.985748,526.920959 
	C100.659355,520.031311 111.263451,519.760864 121.778084,524.799927 
	C134.126007,530.717590 139.998093,544.700256 136.707596,559.095642 
	C133.877106,571.478577 121.843781,580.496399 108.173706,580.479126 
	C94.121498,580.461365 82.848328,571.824036 79.493942,558.189758 
z"/>
<path fill="#166396" opacity="1.000000" stroke="none" 
	d="
M159.166443,576.773071 
	C157.145996,580.832825 153.792236,579.005615 151.240204,578.736206 
	C148.935074,578.492981 149.994843,575.697876 149.985535,574.058655 
	C149.901260,559.231140 149.826538,544.401306 150.049927,529.576660 
	C150.085068,527.244812 147.667770,523.175537 153.117828,522.879150 
	C157.298309,522.651855 160.591309,523.018738 159.082504,529.401367 
	C164.949142,523.013672 171.517731,520.972534 179.020477,521.613159 
	C189.579498,522.514709 197.328903,529.183899 198.676224,539.660156 
	C200.251373,551.907959 199.192444,564.285400 199.209274,576.603821 
	C199.215179,580.920898 195.470886,578.567810 193.424210,578.996765 
	C191.354553,579.430542 189.511124,579.167053 189.565674,576.093872 
	C189.704620,568.265808 189.614487,560.433594 189.608521,552.603088 
	C189.606873,550.437378 189.649521,548.268494 189.550766,546.106567 
	C189.102249,536.287537 183.679764,530.410522 175.089737,530.372498 
	C166.455704,530.334351 159.730850,536.583069 159.365845,545.811462 
	C158.964478,555.959229 159.215836,566.132690 159.166443,576.773071 
z"/>
<path fill="#156396" opacity="1.000000" stroke="none" 
	d="
M263.314453,545.490845 
	C263.321838,555.774170 263.133301,565.604797 263.417908,575.421692 
	C263.534454,579.439758 261.315735,579.151184 258.726501,579.073730 
	C256.305542,579.001343 253.783890,579.803223 253.917435,575.549377 
	C254.220337,565.900574 254.223221,556.228760 253.938202,546.578430 
	C253.540451,533.111450 242.033066,526.049316 231.343033,532.525818 
	C226.198502,535.642578 223.842010,540.565002 223.681885,546.345703 
	C223.419189,555.830200 223.372391,565.329529 223.593307,574.814209 
	C223.679169,578.501282 222.302551,579.173157 218.986618,579.174805 
	C215.549042,579.176514 213.975372,578.673035 214.044495,574.610046 
	C214.302246,559.460449 214.075012,544.303223 214.220673,529.150574 
	C214.244385,526.683655 212.337708,523.055176 217.764801,522.769226 
	C222.626770,522.512939 223.898422,524.438843 223.072235,529.819824 
	C232.279984,520.610718 242.138504,519.002380 252.657394,524.494080 
	C260.768616,528.728882 263.467987,536.258240 263.314453,545.490845 
z"/>
<path fill="#166397" opacity="1.000000" stroke="none" 
	d="
M386.003998,539.370972 
	C378.835876,530.869568 370.580994,528.300049 361.869598,531.630249 
	C353.362640,534.882385 348.700653,542.254395 348.822968,551.992188 
	C348.930756,560.571472 352.979401,566.605347 360.671875,570.022888 
	C368.441925,573.474915 377.784271,571.409851 384.009766,564.848083 
	C386.165131,562.576233 387.656464,562.152405 390.586243,563.600403 
	C394.142883,565.358337 394.512848,566.743774 392.014526,569.775757 
	C384.313385,579.121948 370.435028,582.821777 357.908142,578.605164 
	C346.636749,574.811157 339.260376,564.317749 339.116241,551.872314 
	C338.961456,538.506897 345.887482,527.988525 357.828827,523.453857 
	C369.186249,519.140930 383.336182,522.187744 390.982330,530.764771 
	C392.420502,532.378052 395.405243,534.443726 393.807587,536.395874 
	C392.245605,538.304382 389.729645,540.895935 386.003998,539.370972 
z"/>
<path fill="#166397" opacity="1.000000" stroke="none" 
	d="
M39.861446,531.154785 
	C30.557718,534.344116 25.974354,540.902466 25.353403,549.969238 
	C24.804707,557.980896 27.859812,564.624451 35.031738,568.900452 
	C43.091766,573.705933 53.671326,571.949646 61.054516,564.629333 
	C63.279037,562.423706 68.346375,562.836670 70.143280,565.399048 
	C71.350937,567.121094 69.836998,568.242310 68.989845,569.254272 
	C61.386559,578.336975 51.480946,581.687805 39.989235,579.977844 
	C28.839861,578.318726 21.115191,571.845703 17.320942,561.292236 
	C12.854533,548.869141 17.296795,534.616699 27.414543,527.218445 
	C37.773743,519.643677 53.538963,519.658752 63.921722,527.352478 
	C65.641655,528.626953 67.346901,530.100647 68.554741,531.833740 
	C69.648979,533.403748 72.977722,535.283569 69.420891,537.398193 
	C67.032257,538.818298 64.861198,542.441833 61.307098,537.834045 
	C56.084850,531.063538 48.662621,529.027649 39.861446,531.154785 
z"/>
<path fill="#1B6799" opacity="1.000000" stroke="none" 
	d="
M418.799225,532.945190 
	C418.722839,542.280518 418.660431,551.108765 418.718292,559.936157 
	C418.786591,570.358704 424.293945,574.331787 433.977386,570.190430 
	C438.136322,568.411743 439.056030,570.207581 440.506439,573.067749 
	C442.358093,576.718933 439.510101,577.380493 437.313416,578.354858 
	C422.077881,585.112183 409.590515,577.277344 409.134216,560.562744 
	C408.911591,552.406982 408.858185,544.231506 409.178467,536.082581 
	C409.337585,532.035767 407.960266,530.819824 404.137665,531.190125 
	C401.594177,531.436462 398.825317,532.005310 398.942169,527.484924 
	C399.037506,523.797302 399.943329,522.154297 403.719635,522.794556 
	C407.999969,523.520264 409.847809,521.977234 409.250427,517.435547 
	C408.884338,514.652100 409.180695,511.781250 409.183105,508.949646 
	C409.187805,503.442047 411.386322,501.886261 416.833496,503.273926 
	C418.627991,503.731079 418.706177,504.849121 418.703857,506.235962 
	C418.697449,510.066956 418.983948,513.924377 418.627838,517.721924 
	C418.223694,522.031860 419.961975,523.201355 423.986664,522.863403 
	C427.790710,522.544067 431.652222,522.965393 435.471191,522.751709 
	C439.235870,522.541077 438.722900,524.979675 438.838104,527.332947 
	C438.963989,529.904175 438.449677,531.451172 435.349426,531.292847 
	C431.362366,531.089172 427.354431,531.165894 423.360565,531.288086 
	C421.828674,531.334961 419.955780,530.499817 418.799225,532.945190 
z"/>
<path fill="#3177A5" opacity="1.000000" stroke="none" 
	d="
M38.985439,608.335571 
	C42.422497,608.008301 45.544449,606.772034 48.452835,608.992737 
	C49.963486,610.146179 50.856838,608.662659 51.986782,608.292725 
	C57.678059,606.429626 61.385651,608.671936 61.455994,614.590576 
	C61.488487,617.324585 63.156776,622.289795 60.220242,622.438416 
	C56.847504,622.609192 59.182068,617.918335 58.687309,615.428040 
	C58.169811,612.823181 57.883869,610.201538 54.538429,610.317688 
	C51.446991,610.425049 50.615833,612.770935 50.263702,615.500244 
	C49.946022,617.962585 51.404133,622.576538 49.062141,622.446106 
	C45.421490,622.243286 47.839363,617.901489 47.417904,615.417725 
	C46.970444,612.780701 46.819733,610.174866 43.390594,610.323975 
	C40.238373,610.460999 39.579498,612.843628 39.264408,615.574280 
	C38.982388,618.018433 40.401443,622.703186 38.057106,622.448242 
	C34.474739,622.058655 36.489399,617.534485 36.484402,614.924316 
	C36.480103,612.682739 34.200172,609.141846 38.985439,608.335571 
z"/>
<path fill="#387CA8" opacity="1.000000" stroke="none" 
	d="
M198.205811,608.466736 
	C198.509399,612.906372 198.642288,617.044495 198.611496,621.181396 
	C198.588943,624.211182 197.444611,626.767090 194.451187,627.933167 
	C191.194702,629.201721 187.947647,628.869690 184.847763,627.240417 
	C184.045395,626.818726 183.449387,626.224670 183.971466,625.284119 
	C184.460663,624.402710 185.287262,624.443054 186.115051,624.831848 
	C188.605286,626.001099 191.131027,626.673218 193.669846,625.037781 
	C194.693588,624.378296 195.471786,623.329895 195.012131,622.100586 
	C194.451401,620.601013 193.373352,621.820984 192.547089,621.942566 
	C188.880417,622.482239 185.576080,622.144775 183.436951,618.566223 
	C181.803162,615.833130 181.962067,613.117310 183.811188,610.649414 
	C186.082474,607.618042 189.401367,606.957275 192.722549,608.151245 
	C194.649918,608.844238 196.247406,607.454041 198.205811,608.466736 
z"/>
<path fill="#3479A7" opacity="1.000000" stroke="none" 
	d="
M572.859131,621.577271 
	C570.147705,622.189453 567.618591,622.668457 565.273376,621.508545 
	C562.304749,620.040283 560.881165,617.417542 561.274292,614.136353 
	C561.661621,610.903809 563.440552,608.791138 566.783752,607.852905 
	C569.909241,606.975830 572.753296,609.473938 575.935852,608.178223 
	C576.846252,607.807556 577.033142,609.547058 577.040527,610.518372 
	C577.065735,613.841919 577.153748,617.169739 577.028870,620.488770 
	C576.768433,627.409241 570.359985,631.013916 564.303650,627.696899 
	C563.467041,627.238647 562.258118,626.740967 562.771057,625.532104 
	C563.288635,624.312378 564.439148,624.880676 565.361877,625.174805 
	C568.474426,626.167053 571.563416,627.096558 573.556396,622.856445 
	C573.503479,622.139038 573.345154,621.835999 572.859131,621.577271 
z"/>
<path fill="#3177A5" opacity="1.000000" stroke="none" 
	d="
M474.909576,615.272766 
	C474.896149,617.545715 474.907867,619.377563 474.854034,621.207520 
	C474.827332,622.114319 474.413330,622.867065 473.394653,622.834595 
	C472.363892,622.801697 472.053101,621.973633 472.032837,621.101196 
	C471.978760,618.770874 472.004913,616.438721 471.955719,614.108215 
	C471.905518,611.732483 470.672791,610.297363 468.292419,610.263245 
	C466.018311,610.230530 464.421997,611.480713 464.172852,613.781921 
	C463.923096,616.089111 464.051025,618.436157 463.987640,620.765015 
	C463.959534,621.797791 463.802917,622.893433 462.458038,622.851074 
	C461.128113,622.809204 461.029266,621.689453 461.011841,620.672424 
	C460.977600,618.674561 460.948944,616.675293 460.984100,614.677795 
	C461.029144,612.119324 459.917267,610.381836 457.306946,610.280090 
	C454.475037,610.169739 453.104065,611.950623 452.973755,614.672913 
	C452.886200,616.500977 452.952026,618.335815 452.910614,620.166809 
	C452.885040,621.296997 453.107941,622.717957 451.456512,622.841370 
	C449.623230,622.978149 449.957611,621.445496 449.906006,620.366394 
	C449.834503,618.870972 449.767792,617.358276 449.910614,615.873352 
	C450.158661,613.294067 448.913544,608.734192 450.716125,608.541626 
	C453.924652,608.198853 457.526978,606.488892 460.804352,608.385803 
	C462.388977,609.302979 463.551239,609.241089 465.310303,608.532715 
	C471.209686,606.157227 474.239044,608.282227 474.909576,615.272766 
z"/>
<path fill="#397DA9" opacity="1.000000" stroke="none" 
	d="
M107.909149,622.938232 
	C103.500893,619.306091 103.548470,613.781250 101.325462,609.288879 
	C100.984474,608.599792 101.488365,608.032898 102.301918,608.006775 
	C103.270355,607.975647 103.779480,608.590881 104.103058,609.418213 
	C105.188324,612.192932 106.275894,614.966797 107.476944,618.032959 
	C109.900459,615.706543 110.037979,612.577576 111.300270,610.006531 
	C111.724106,609.143250 112.001862,608.075928 113.239685,607.977173 
	C114.755638,607.856201 115.191994,609.020996 115.622421,610.091797 
	C116.591522,612.502808 117.498375,614.938904 118.908485,618.608459 
	C120.437019,614.966980 121.483414,612.479553 122.525078,609.990112 
	C122.980865,608.900818 123.457779,607.541504 124.933006,608.181091 
	C126.271423,608.761475 125.268326,609.917480 124.976776,610.735107 
	C123.805992,614.018311 122.532150,617.264709 121.317261,620.532410 
	C120.910446,621.626709 120.646233,622.853088 119.166191,622.925537 
	C117.427841,623.010620 117.033539,621.609131 116.547699,620.383972 
	C115.632057,618.075012 114.759361,615.749023 113.784157,613.209717 
	C110.528473,615.830505 111.574760,620.618347 107.909149,622.938232 
z"/>
<path fill="#3177A5" opacity="1.000000" stroke="none" 
	d="
M66.209404,619.902832 
	C66.209419,618.269653 66.209381,617.107666 66.209297,615.945679 
	C66.208694,607.718445 66.208687,607.718384 74.323128,607.656738 
	C78.902603,607.621887 82.168495,610.959595 82.041428,615.544739 
	C81.911797,620.222595 78.022415,623.642883 73.406189,623.020996 
	C72.128380,622.848938 70.899796,622.311523 69.710793,621.960083 
	C68.206314,623.936707 70.386261,628.348083 67.988731,627.923584 
	C64.281403,627.267029 67.016182,622.958191 66.209404,619.902832 
z"/>
<path fill="#357AA7" opacity="1.000000" stroke="none" 
	d="
M591.351562,612.842407 
	C588.887207,611.135742 587.939819,609.159668 588.993286,606.614136 
	C589.984619,604.218567 591.970764,603.078186 594.481934,602.953308 
	C596.130920,602.871277 597.811096,602.897766 599.441467,603.128967 
	C600.668518,603.302856 602.536499,603.408447 602.318604,605.158997 
	C602.047546,607.337646 600.347717,606.126099 599.166138,605.949585 
	C598.183472,605.802856 597.193909,605.464050 596.224487,605.518066 
	C594.390503,605.620117 592.260681,605.800415 591.981750,608.108215 
	C591.722168,610.254944 593.660034,610.651306 595.280579,611.107727 
	C596.718933,611.512878 598.178284,611.872253 599.571716,612.401184 
	C601.867920,613.272766 603.743835,614.609619 603.702820,617.406494 
	C603.659241,620.375732 601.734253,621.859863 599.188477,622.677246 
	C596.016479,623.695740 592.935730,623.173706 589.998230,621.759949 
	C589.138123,621.345947 588.043579,620.764465 588.759949,619.526550 
	C589.246399,618.685852 590.183105,618.821472 590.980408,619.207642 
	C593.140137,620.253906 595.381897,620.670715 597.757141,620.176514 
	C599.171814,619.882263 600.338989,619.192993 600.381470,617.632141 
	C600.416382,616.346558 599.503723,615.489868 598.321594,615.095215 
	C596.120361,614.360474 593.890259,613.712158 591.351562,612.842407 
z"/>
<path fill="#357AA7" opacity="1.000000" stroke="none" 
	d="
M17.835846,614.960510 
	C17.835539,613.972412 17.835222,613.472473 17.835270,612.972595 
	C17.836308,602.120056 18.674849,601.414612 29.611401,602.995117 
	C30.592844,603.136902 31.853001,603.053711 31.811272,604.391113 
	C31.771774,605.657043 30.554787,605.746216 29.541891,605.764709 
	C27.709496,605.798279 25.873486,605.852356 24.044144,605.775330 
	C22.100945,605.693481 20.938255,606.120972 20.910805,608.464966 
	C20.884161,610.740112 21.879057,611.122681 23.885458,611.312500 
	C26.170532,611.528564 30.307541,609.917358 30.328993,612.605225 
	C30.351500,615.425415 26.250385,613.832092 24.021921,613.953613 
	C21.624062,614.084290 20.931818,614.827087 20.889683,617.175659 
	C20.843126,619.770691 22.007753,620.265930 24.204327,620.135071 
	C26.196077,620.016418 28.201769,620.109741 30.200726,620.144104 
	C31.069073,620.159058 31.905163,620.398438 32.017319,621.421265 
	C32.129185,622.441528 31.471479,622.936768 30.522226,622.944031 
	C26.858086,622.971985 23.193203,622.995117 19.529510,622.948486 
	C17.882183,622.927490 17.868771,621.632507 17.851664,620.447571 
	C17.827610,618.781555 17.839493,617.115051 17.835846,614.960510 
z"/>
<path fill="#357AA7" opacity="1.000000" stroke="none" 
	d="
M215.479370,607.311646 
	C212.238861,610.416016 211.814270,613.695496 214.065781,616.989746 
	C216.460419,620.493469 219.939499,621.021912 223.751205,619.486084 
	C224.924896,619.013245 226.331131,617.595947 227.106186,619.352112 
	C227.964478,621.296936 225.825195,621.663696 224.580246,622.228394 
	C220.065277,624.276245 214.514236,622.868347 211.597534,619.022644 
	C208.638962,615.121704 208.839096,609.860779 212.085052,606.207031 
	C215.112900,602.798767 221.432297,601.672058 225.360168,603.890503 
	C226.311218,604.427795 227.781662,604.872742 227.156311,606.381775 
	C226.501663,607.961548 225.342133,607.223145 224.270340,606.671509 
	C221.387573,605.187683 218.545425,605.234314 215.479370,607.311646 
z"/>
<path fill="#3F80AB" opacity="1.000000" stroke="none" 
	d="
M166.869659,608.067810 
	C167.535004,608.312012 167.870071,608.524414 168.163147,608.477112 
	C177.676361,606.939636 181.757812,611.592957 179.246170,621.072693 
	C178.954941,622.171875 178.539322,623.004211 177.330139,622.859375 
	C176.359497,622.743164 176.076584,621.863159 176.056076,620.994141 
	C176.005020,618.831909 176.063019,616.665771 175.963669,614.506409 
	C175.848923,612.012573 174.644409,610.327026 171.984131,610.369690 
	C169.469284,610.409912 167.954987,611.899902 167.734955,614.391663 
	C167.545258,616.540100 167.661362,618.714111 167.588898,620.875000 
	C167.553604,621.926697 167.249100,622.863831 165.932510,622.900513 
	C165.179840,622.921448 164.515411,622.496216 164.488052,621.825378 
	C164.306274,617.369934 163.809021,612.895874 164.791946,608.480286 
	C164.859100,608.178589 165.920700,608.098267 166.869659,608.067810 
z"/>
<path fill="#3378A6" opacity="1.000000" stroke="none" 
	d="
M130.707611,617.500244 
	C132.609848,621.104858 135.333252,620.631226 138.130875,619.561462 
	C139.010803,619.224976 139.690796,619.136658 140.230698,620.031921 
	C140.726913,620.854736 140.057220,621.307739 139.579117,621.634033 
	C136.685211,623.609375 133.618790,623.638428 130.619308,621.992371 
	C127.279915,620.159912 126.128212,617.130066 126.898544,613.524048 
	C127.693489,609.802856 130.257965,607.816711 134.021118,607.708252 
	C137.459869,607.609253 140.184875,608.933350 141.449112,612.423401 
	C142.449402,615.184753 141.675339,616.398987 138.567459,616.385254 
	C135.965561,616.373718 133.247131,615.642822 130.707611,617.500244 
z"/>
<path fill="#3F80AB" opacity="1.000000" stroke="none" 
	d="
M546.767273,608.503906 
	C550.482971,607.473694 553.982483,606.637695 556.412354,609.776794 
	C559.197021,613.374268 557.746643,617.780945 557.702637,621.869019 
	C557.695679,622.517761 556.972412,622.924561 556.218140,622.873108 
	C555.220581,622.805115 554.733521,622.185425 554.705933,621.257874 
	C554.641663,619.095581 554.652222,616.931152 554.608582,614.768066 
	C554.558960,612.310730 553.612976,610.434265 550.903381,610.382568 
	C548.106018,610.329102 546.654236,612.040771 546.461182,614.742432 
	C546.330933,616.565491 546.429993,618.403870 546.382324,620.234192 
	C546.352600,621.375122 546.503906,622.759521 544.844482,622.857483 
	C543.156616,622.956970 543.125793,621.607971 543.114563,620.438477 
	C543.082581,617.109070 543.092346,613.779114 543.112122,610.449463 
	C543.126160,608.085144 544.278687,607.529541 546.767273,608.503906 
z"/>
<path fill="#387CA8" opacity="1.000000" stroke="none" 
	d="
M502.257690,617.896484 
	C502.230164,619.307983 502.245270,620.306885 502.162842,621.297607 
	C502.087097,622.207397 501.639832,622.884949 500.617401,622.852051 
	C499.583710,622.818848 499.217712,622.072998 499.187836,621.186401 
	C499.126312,619.361755 499.101654,617.534302 499.123291,615.708740 
	C499.158356,612.750183 498.494232,610.155396 494.894012,610.311646 
	C491.490692,610.459351 490.645538,612.950806 490.725220,615.938049 
	C490.765076,617.431641 490.744720,618.927734 490.712341,620.421936 
	C490.686676,621.606567 490.649597,622.944153 488.999146,622.869568 
	C487.285370,622.792114 487.602692,621.321106 487.555115,620.232483 
	C487.489899,618.740479 487.533356,617.243652 487.533234,615.748901 
	C487.532654,607.496094 488.262817,606.842224 496.514648,607.702148 
	C500.923431,608.161621 502.180176,610.301392 502.257690,617.896484 
z"/>
<path fill="#3177A5" opacity="1.000000" stroke="none" 
	d="
M297.391724,608.604492 
	C298.571320,609.768555 299.640991,610.642761 300.233002,611.768250 
	C301.681305,614.521545 301.646515,616.607910 297.589508,616.332092 
	C295.940430,616.219971 294.274414,616.265503 292.620911,616.342590 
	C291.570221,616.391541 290.078857,615.946960 289.874756,617.567749 
	C289.701263,618.945129 290.927429,619.510254 292.008026,619.946960 
	C293.448273,620.528931 294.910980,620.403137 296.392273,619.983276 
	C297.350006,619.711914 298.617371,618.284668 299.263245,620.051941 
	C299.918060,621.843689 298.029724,622.145813 296.962585,622.544617 
	C293.526337,623.828979 290.401459,623.041870 287.873962,620.427185 
	C285.547760,618.020630 285.329010,615.059631 286.551941,612.110779 
	C287.925385,608.799133 290.736267,607.558411 294.181854,607.725525 
	C295.151825,607.772644 296.104095,608.184387 297.391724,608.604492 
z"/>
<path fill="#357AA7" opacity="1.000000" stroke="none" 
	d="
M244.175797,619.241333 
	C242.480408,621.770752 240.355804,622.932190 237.708694,623.086121 
	C233.227295,623.346802 229.519806,620.070557 229.285583,615.699463 
	C229.033600,610.997070 232.525742,607.551208 237.453140,607.640198 
	C242.073486,607.723572 245.381653,611.031616 245.229736,615.585754 
	C245.192413,616.704773 244.657562,617.807251 244.175797,619.241333 
z"/>
<path fill="#2F76A5" opacity="1.000000" stroke="none" 
	d="
M363.693359,610.917603 
	C360.626129,613.690308 361.977661,617.034485 361.622589,620.051697 
	C361.494812,621.137634 361.917511,622.730042 360.328552,622.838562 
	C358.200653,622.983948 358.830292,621.104492 358.742615,619.930603 
	C358.631989,618.448730 358.714355,616.952454 358.714203,615.462402 
	C358.713501,608.126648 360.428253,606.687012 367.820831,607.773071 
	C370.824554,608.214294 372.703613,609.822693 372.912079,612.916443 
	C373.078735,615.389465 373.025269,617.880432 372.991180,620.362366 
	C372.976166,621.457153 373.203430,622.960266 371.427490,622.833862 
	C369.764282,622.715515 370.066742,621.255005 370.034637,620.155579 
	C369.986389,618.501282 370.008057,616.844666 370.016785,615.189087 
	C370.038757,611.012756 368.158295,609.382019 363.693359,610.917603 
z"/>
<path fill="#357AA7" opacity="1.000000" stroke="none" 
	d="
M279.326721,618.726685 
	C278.894714,615.144104 280.782104,610.341431 275.233002,610.431580 
	C270.103516,610.514832 271.044556,614.961548 270.953461,618.354492 
	C270.931152,619.183533 270.967560,620.015015 270.921509,620.842346 
	C270.863281,621.889587 270.624023,622.892700 269.285339,622.840393 
	C268.236603,622.799316 267.966248,621.941711 267.961121,621.093567 
	C267.938080,617.279114 267.948547,613.464050 268.002319,609.650024 
	C268.008606,609.203552 268.430145,608.357727 268.536713,608.376892 
	C272.079041,609.015015 275.598602,606.668274 279.120941,608.265991 
	C281.795319,609.479126 282.317200,611.871033 282.371185,614.471741 
	C282.405609,616.130188 282.523254,617.802734 282.358582,619.444397 
	C282.231171,620.714722 283.221893,622.986877 280.778015,622.809021 
	C278.648468,622.654053 279.558807,620.509766 279.326721,618.726685 
z"/>
<path fill="#3378A6" opacity="1.000000" stroke="none" 
	d="
M617.667236,622.006836 
	C613.308533,624.053040 609.758911,623.269836 607.227234,619.767761 
	C605.117615,616.849426 605.152283,613.466064 607.401672,610.549377 
	C609.840332,607.387329 613.283997,607.021729 616.816284,608.269775 
	C622.468323,610.266663 623.019165,616.995605 617.667236,622.006836 
z"/>
<path fill="#2E75A4" opacity="1.000000" stroke="none" 
	d="
M248.625885,611.545776 
	C248.928848,609.768250 247.858734,607.183289 251.055893,608.431946 
	C251.483505,608.598938 251.965622,608.781006 252.404022,608.743103 
	C262.393890,607.877380 264.915131,610.729004 263.087006,620.829956 
	C262.906799,621.825684 262.898041,622.960205 261.476410,622.805298 
	C260.155304,622.661438 260.128601,621.546570 260.112946,620.542236 
	C260.081848,618.544495 260.060547,616.545776 260.083618,614.548035 
	C260.113525,611.956177 258.901337,610.361938 256.298126,610.252319 
	C253.812180,610.147705 252.100845,611.470764 251.792252,613.979004 
	C251.509140,616.280273 251.611389,618.627441 251.502731,620.952393 
	C251.453995,621.995178 251.223572,623.038147 249.834793,622.855957 
	C248.796631,622.719849 248.661530,621.812439 248.654236,620.962952 
	C248.628448,617.966003 248.632553,614.968750 248.625885,611.545776 
z"/>
<path fill="#3378A6" opacity="1.000000" stroke="none" 
	d="
M519.031006,618.901550 
	C518.862244,625.955200 513.635315,621.830322 510.958679,622.844299 
	C508.681091,623.707092 505.967590,621.762695 505.921875,618.701477 
	C505.866913,615.025024 508.593079,614.246582 511.684082,613.893188 
	C513.049316,613.737061 515.676636,615.213379 515.588928,612.570435 
	C515.504761,610.034729 512.964417,610.014404 510.890442,610.265869 
	C510.244598,610.344177 509.631683,610.679077 508.998566,610.880554 
	C508.169830,611.144287 507.225983,611.287659 506.880035,610.315369 
	C506.402435,608.972900 507.605865,608.691406 508.495880,608.315674 
	C514.359558,605.840271 518.908813,608.702942 519.026306,614.940125 
	C519.048279,616.105530 519.030762,617.271790 519.031006,618.901550 
z"/>
<path fill="#3177A5" opacity="1.000000" stroke="none" 
	d="
M99.825104,617.421143 
	C97.668236,622.154297 94.331345,624.022400 89.628502,622.651489 
	C85.759499,621.523499 84.082008,618.564453 84.240707,614.698730 
	C84.415886,610.431763 87.835678,607.579590 92.314453,607.656677 
	C97.481430,607.745605 99.983757,610.827942 99.825104,617.421143 
z"/>
<path fill="#2E75A4" opacity="1.000000" stroke="none" 
	d="
M681.937988,622.201782 
	C677.467896,623.994324 674.064941,622.970398 671.613586,619.389648 
	C669.620911,616.478943 669.881104,613.365112 671.993958,610.617798 
	C674.439026,607.438782 677.841919,607.172241 681.412476,608.227356 
	C684.037537,609.003113 685.550964,610.962219 685.974243,613.594421 
	C686.542786,617.130310 685.688110,620.169067 681.937988,622.201782 
z"/>
<path fill="#2E75A4" opacity="1.000000" stroke="none" 
	d="
M434.676086,622.709229 
	C431.199371,620.283264 429.214569,612.741821 430.739929,609.122498 
	C431.020172,608.457458 431.343353,607.942200 432.147522,608.042725 
	C433.162506,608.169739 433.498535,608.897461 433.521362,609.788818 
	C433.572571,611.786682 433.584167,613.785583 433.602264,615.784180 
	C433.626617,618.473206 434.549042,620.393311 437.639557,620.261169 
	C440.499603,620.138855 441.770416,618.406433 441.873840,615.703308 
	C441.950195,613.706604 441.902954,611.705383 441.962585,609.707764 
	C441.988556,608.837097 442.278717,608.054749 443.352509,608.039734 
	C444.377136,608.025391 444.856598,608.664551 444.865295,609.605530 
	C444.900696,613.436035 444.907623,617.266846 444.898773,621.097595 
	C444.896759,621.972168 444.348419,623.221252 443.640106,622.787109 
	C440.673035,620.969177 437.894928,624.104309 434.676086,622.709229 
z"/>
<path fill="#2E75A4" opacity="1.000000" stroke="none" 
	d="
M340.642853,610.773560 
	C343.887268,607.192383 347.521545,606.921570 351.277069,608.719360 
	C354.312653,610.172546 355.258514,613.008362 354.964478,616.230957 
	C354.636658,619.823792 352.398468,621.936279 349.123505,622.837219 
	C345.998505,623.696899 343.149445,622.753479 341.058624,620.288208 
	C338.653046,617.451843 338.547882,614.289124 340.642853,610.773560 
z"/>
<path fill="#2F76A5" opacity="1.000000" stroke="none" 
	d="
M387.323364,621.536743 
	C384.245331,623.376282 381.377106,623.577209 378.416504,622.356506 
	C377.535370,621.993225 376.280243,621.841614 376.628540,620.476440 
	C376.968170,619.145325 377.955597,619.307800 378.979034,619.793213 
	C379.419464,620.002136 379.931580,620.104736 380.421600,620.156372 
	C382.338715,620.358215 385.001770,621.251648 385.440887,618.677917 
	C385.780579,616.686707 383.087036,616.821716 381.572601,616.503235 
	C379.177185,615.999512 376.921967,615.446655 376.675049,612.479065 
	C376.524841,610.673889 377.222748,609.193298 378.981293,608.456848 
	C381.724640,607.307983 384.491028,607.433044 387.191864,608.598083 
	C387.504364,608.732788 387.775208,609.395874 387.748993,609.793091 
	C387.696594,610.587280 386.988403,610.892639 386.316711,610.813049 
	C385.505829,610.717041 384.729675,610.238342 383.925018,610.198547 
	C382.331879,610.119995 380.156494,609.637207 379.919678,611.905701 
	C379.707520,613.938538 381.834198,613.701782 383.211975,614.047791 
	C388.871582,615.468811 389.603790,616.679810 387.323364,621.536743 
z"/>
<path fill="#3378A6" opacity="1.000000" stroke="none" 
	d="
M639.921082,620.256226 
	C643.222046,619.813965 644.182983,617.950378 644.146179,615.283813 
	C644.120972,613.453369 644.148315,611.621155 644.197876,609.790955 
	C644.222168,608.892090 644.612061,608.154907 645.601807,608.058655 
	C646.668884,607.954773 647.073120,608.685791 647.081909,609.597290 
	C647.118652,613.425537 647.128052,617.254395 647.095947,621.082642 
	C647.092163,621.529846 646.673279,622.377930 646.607422,622.362244 
	C643.252319,621.567749 639.985535,624.114197 636.590332,622.547180 
	C634.185913,621.437317 633.037292,619.627136 632.960876,617.079773 
	C632.896057,614.917114 632.889282,612.750000 632.947876,610.587341 
	C632.977234,609.502869 632.694336,607.948059 634.477051,608.074829 
	C636.083679,608.189087 635.890503,609.649353 635.919373,610.781494 
	C635.966064,612.612000 635.942017,614.444092 635.971497,616.275208 
	C636.008789,618.594543 637.018616,620.077881 639.921082,620.256226 
z"/>
<path fill="#2E75A4" opacity="1.000000" stroke="none" 
	d="
M689.889893,612.156616 
	C690.257324,610.235901 688.851501,607.804626 692.342957,608.239258 
	C696.657654,608.776306 702.487488,605.243530 703.961487,612.681641 
	C704.470886,615.251953 704.132874,617.996277 704.119507,620.660828 
	C704.114746,621.608643 704.219421,622.814148 702.797974,622.866455 
	C701.472473,622.915222 701.204468,621.890747 701.182983,620.829651 
	C701.139160,618.664185 701.147827,616.497803 701.121948,614.331848 
	C701.090942,611.735840 699.836304,610.154053 697.179565,610.254272 
	C694.759399,610.345581 693.057373,611.588196 692.925781,614.229980 
	C692.809875,616.557556 692.852478,618.892517 692.775635,621.222656 
	C692.745300,622.141846 692.270264,622.841248 691.273438,622.838745 
	C690.196533,622.835999 689.947571,621.976501 689.933594,621.125122 
	C689.887268,618.293274 689.899658,615.460510 689.889893,612.156616 
z"/>
<path fill="#3378A6" opacity="1.000000" stroke="none" 
	d="
M305.110229,610.176392 
	C308.318542,607.358826 311.617676,607.032227 315.094635,608.573914 
	C316.067566,609.005310 317.463745,609.610657 316.670319,611.110779 
	C316.030273,612.320923 315.049133,611.771606 314.152588,611.191345 
	C311.488861,609.467712 309.012604,609.821777 307.171570,612.348022 
	C305.791473,614.241760 305.794281,616.507080 307.259705,618.397461 
	C309.049286,620.705872 311.448914,620.860962 313.943390,619.572937 
	C314.983643,619.035828 316.163391,618.119324 316.736542,619.745972 
	C317.211670,621.094421 315.786743,621.676758 314.772705,622.205444 
	C311.389465,623.969421 308.147369,623.305115 305.593384,620.828613 
	C302.437103,617.768066 302.359711,614.113403 305.110229,610.176392 
z"/>
<path fill="#3C7EAB" opacity="1.000000" stroke="none" 
	d="
M528.462646,610.305908 
	C527.992188,614.056519 523.890137,618.892822 531.022339,620.442505 
	C531.370117,620.518127 531.917542,621.295410 531.833923,621.444885 
	C531.534607,621.979736 531.084290,622.557312 530.546204,622.809875 
	C527.768005,624.113892 524.721741,622.061096 524.028870,618.757874 
	C523.373535,615.633423 525.864258,611.701904 521.721191,609.449646 
	C522.833984,607.791382 523.664307,605.781921 525.149902,604.587280 
	C526.315186,603.650085 526.997070,605.279419 527.383667,606.395325 
	C527.777344,607.531616 528.773621,607.667419 529.767700,607.839783 
	C530.647949,607.992310 531.551514,608.456848 531.015442,609.410339 
	C530.730957,609.916260 529.611694,609.952759 528.462646,610.305908 
z"/>
<path fill="#387CA8" opacity="1.000000" stroke="none" 
	d="
M321.697784,604.941162 
	C325.383789,604.060730 324.642700,610.128601 329.312805,608.425110 
	C323.993958,609.578979 324.102844,612.887695 324.299469,616.365234 
	C324.420166,618.500000 324.458710,620.489075 327.390472,620.335388 
	C328.286102,620.288513 329.155823,620.426819 329.047577,621.540649 
	C328.958801,622.454163 328.152222,622.918823 327.281860,623.018982 
	C324.491394,623.340027 322.381104,622.468872 321.498505,619.561890 
	C320.465485,616.159485 322.753418,612.141785 319.243103,609.041626 
	C318.496887,608.382690 321.804352,607.211914 321.697784,604.941162 
z"/>
<path fill="#2B73A3" opacity="1.000000" stroke="none" 
	d="
M659.118774,609.794678 
	C656.320557,609.873291 654.868530,610.819397 655.391968,613.469360 
	C655.876831,615.924194 653.703247,619.481018 658.060181,620.393433 
	C658.977722,620.585510 660.264160,620.175354 660.009216,621.702515 
	C659.815918,622.860413 658.649231,623.054688 657.627869,623.056091 
	C654.048340,623.060974 652.889771,620.930420 652.419128,617.679504 
	C652.031555,615.002197 654.013977,611.907104 650.592957,609.504883 
	C649.670166,608.856812 652.352051,606.224609 653.491089,604.807922 
	C654.589172,603.442139 655.299927,605.386169 655.398132,606.465881 
	C655.635010,609.069763 659.707397,606.523865 659.118774,609.794678 
z"/>
<path fill="#397DA9" opacity="1.000000" stroke="none" 
	d="
M150.829834,611.018188 
	C147.516113,613.648926 149.034103,617.036255 148.653931,620.029419 
	C148.492264,621.302368 148.812500,622.999512 146.819550,622.850708 
	C145.188309,622.728882 145.540787,621.184204 145.498978,620.104736 
	C145.428543,618.286194 145.709564,616.426575 145.430908,614.648804 
	C144.714981,610.081604 145.673859,607.207825 151.138458,607.978088 
	C152.036469,608.104736 153.303314,607.286499 153.681732,608.599731 
	C154.299240,610.742615 152.105240,610.170776 150.829834,611.018188 
z"/>
<path fill="#397EAB" opacity="1.000000" stroke="none" 
	d="
M409.713257,606.448242 
	C409.715027,611.189331 409.744415,615.478149 409.698059,619.766113 
	C409.684723,621.001343 410.087006,622.720642 408.200897,622.883911 
	C406.166840,623.059998 406.458649,621.293457 406.446075,620.060120 
	C406.397308,615.277344 406.411560,610.493652 406.447388,605.710632 
	C406.455719,604.598022 406.318726,603.148987 407.956116,603.112305 
	C409.958984,603.067505 409.577362,604.750305 409.713257,606.448242 
z"/>
<path fill="#2F76A5" opacity="1.000000" stroke="none" 
	d="
M425.899902,610.116455 
	C425.898102,613.895508 425.905670,617.199158 425.889465,620.502625 
	C425.883606,621.699951 425.802521,622.977173 424.124908,622.799316 
	C422.749847,622.653625 422.930328,621.425720 422.924988,620.495850 
	C422.893799,615.045166 422.892303,609.594116 422.923462,604.143494 
	C422.928741,603.221497 422.710419,601.982727 424.131256,601.865845 
	C425.796539,601.728882 425.888702,602.974426 425.893677,604.190125 
	C425.901123,606.007080 425.898376,607.823975 425.899902,610.116455 
z"/>
<path fill="#0D5D92" opacity="1.000000" stroke="none" 
	d="
M415.048950,614.908936 
	C415.053345,610.942139 415.040619,607.456665 415.072723,603.971619 
	C415.082092,602.952271 415.225372,601.899292 416.663208,602.075806 
	C417.734009,602.207336 417.850708,603.096313 417.853912,603.924255 
	C417.875946,609.567017 417.877350,615.209961 417.863251,620.852844 
	C417.860596,621.916992 417.602722,622.885071 416.217041,622.731140 
	C415.105438,622.607605 415.090729,621.675415 415.071991,620.867004 
	C415.029663,619.042297 415.052551,617.216003 415.048950,614.908936 
z"/>
<path fill="#2B73A3" opacity="1.000000" stroke="none" 
	d="
M625.055054,609.094788 
	C625.646790,606.404236 623.700867,602.310242 626.520691,602.284790 
	C629.524231,602.257690 627.821350,606.291443 627.990295,608.481018 
	C628.296448,612.448364 628.094360,616.456726 628.057800,620.447510 
	C628.047546,621.572815 628.184631,622.992676 626.390503,622.822693 
	C625.047424,622.695435 625.077271,621.536560 625.070740,620.553345 
	C625.046448,616.894958 625.057312,613.236389 625.055054,609.094788 
z"/>
<path fill="#397DA9" opacity="1.000000" stroke="none" 
	d="
M482.683472,609.192871 
	C482.757935,613.232239 482.777985,616.890015 482.760254,620.547546 
	C482.754333,621.766602 482.589752,623.021545 480.927216,622.866699 
	C479.577881,622.740967 479.612457,621.568848 479.604553,620.592468 
	C479.576263,617.101196 479.524567,613.607727 479.619934,610.118774 
	C479.683289,607.801819 480.593628,606.903748 482.683472,609.192871 
z"/>
<path fill="#4886AE" opacity="1.000000" stroke="none" 
	d="
M158.792801,608.023682 
	C160.351105,612.411194 159.454025,616.720093 159.658066,620.981140 
	C159.698990,621.836060 159.396713,622.681519 158.442886,622.887024 
	C157.789856,623.027710 156.914169,622.789368 156.899948,622.045715 
	C156.810211,617.348694 155.736771,612.596741 157.542847,607.996216 
	C157.600494,607.849365 158.150085,607.895691 158.792801,608.023682 
z"/>
<path fill="#397EAB" opacity="1.000000" stroke="none" 
	d="
M332.730377,617.703735 
	C332.730896,615.277100 332.621796,613.284180 332.770477,611.310608 
	C332.866333,610.038086 331.906738,607.871521 334.359650,607.955444 
	C336.229584,608.019348 335.782654,609.856750 335.805847,611.097534 
	C335.858337,613.908264 335.892639,616.723145 335.792297,619.531250 
	C335.744965,620.855103 336.417694,622.977722 334.054047,622.830139 
	C332.146606,622.710999 332.935059,620.814209 332.744049,619.632080 
	C332.665894,619.148499 332.730408,618.641785 332.730377,617.703735 
z"/>
<path fill="#4383AD" opacity="1.000000" stroke="none" 
	d="
M538.487976,620.398315 
	C538.381775,621.857788 538.185608,622.851624 536.872070,622.885864 
	C535.567566,622.919922 535.200806,621.972839 535.188904,620.926880 
	C535.147583,617.289062 535.149719,613.650208 535.188477,610.012329 
	C535.199524,608.974670 535.529236,607.998535 536.830811,608.012024 
	C538.130066,608.025452 538.440308,609.001709 538.454041,610.046570 
	C538.497742,613.353577 538.486633,616.661438 538.487976,620.398315 
z"/>
<path fill="#3177A5" opacity="1.000000" stroke="none" 
	d="
M666.962708,615.019470 
	C666.090454,617.874023 668.892883,622.291626 665.244263,622.446594 
	C662.692078,622.554993 664.380127,618.036865 664.004578,615.622192 
	C663.753906,614.010132 663.908447,612.324707 663.980103,610.676453 
	C664.026367,609.611938 663.652649,608.098755 665.379150,608.059082 
	C667.059143,608.020508 666.908630,609.457153 666.945129,610.586975 
	C666.987732,611.906738 666.959961,613.228760 666.962708,615.019470 
z"/>
<path fill="#387CA8" opacity="1.000000" stroke="none" 
	d="
M392.489624,626.666809 
	C390.181061,625.268738 392.535400,622.979187 391.082825,621.117676 
	C390.415894,620.263062 391.643402,618.956787 393.020508,619.099121 
	C394.341248,619.235596 395.113342,620.284241 394.782135,621.531494 
	C394.327759,623.242798 393.513641,624.858459 392.489624,626.666809 
z"/>
<path fill="#4886AE" opacity="1.000000" stroke="none" 
	d="
M667.096924,602.509827 
	C667.106628,604.652161 666.300110,605.572571 664.440735,604.707153 
	C663.676636,604.351501 663.328369,603.471863 663.701050,602.657410 
	C664.520874,600.866028 665.672241,600.729126 667.096924,602.509827 
z"/>
<path fill="#4383AD" opacity="1.000000" stroke="none" 
	d="
M479.478699,603.844360 
	C479.493256,602.018311 480.132385,600.945374 481.831451,601.510498 
	C482.886597,601.861450 483.311310,602.877502 482.759003,603.887634 
	C481.930603,605.402771 480.799469,605.404602 479.478699,603.844360 
z"/>
<path fill="#4886AE" opacity="1.000000" stroke="none" 
	d="
M538.500488,602.501526 
	C538.663635,604.519592 537.827942,605.329712 536.195068,604.825378 
	C535.139099,604.499207 534.653992,603.523987 535.209167,602.466125 
	C536.046570,600.870483 537.181458,601.000000 538.500488,602.501526 
z"/>
<path fill="#4886AE" opacity="1.000000" stroke="none" 
	d="
M332.425964,603.852295 
	C332.526520,601.859802 333.249146,600.753784 335.141083,601.607849 
	C335.932190,601.964905 336.330475,602.840393 335.971497,603.628052 
	C335.180481,605.363586 333.988129,605.569397 332.425964,603.852295 
z"/>
<path fill="#4886AE" opacity="1.000000" stroke="none" 
	d="
M158.194931,601.338318 
	C159.940613,602.099976 160.427658,603.145081 159.279236,604.497681 
	C158.628067,605.264648 157.722092,605.197327 157.117401,604.535522 
	C155.915497,603.220154 156.445496,602.156555 158.194931,601.338318 
z"/>
<path fill="#FFFEFE" opacity="1.000000" stroke="none" 
	d="
M618.101318,279.734253 
	C614.004761,313.168427 589.686829,336.887787 556.739746,338.547089 
	C522.545471,340.269165 494.461334,315.177124 490.090149,282.239044 
	C484.865509,242.870178 516.665833,207.872925 556.219971,209.383240 
	C592.852600,210.782028 620.922119,242.026871 618.101318,279.734253 
z"/>
<path fill="#FFFCFA" opacity="1.000000" stroke="none" 
	d="
M500.569214,558.674683 
	C490.364380,565.501831 478.755219,564.859253 470.938568,557.272339 
	C463.364899,549.921265 461.784729,537.452148 467.262329,528.262207 
	C473.700287,517.461060 488.987274,514.094177 499.143768,521.240417 
	C510.079102,528.934692 512.404297,545.052612 504.018433,555.266785 
	C503.073547,556.417664 501.917511,557.395142 500.569214,558.674683 
z"/>
<path fill="#F2F6F9" opacity="1.000000" stroke="none" 
	d="
M309.575073,531.110291 
	C315.388184,533.488037 318.781158,537.420654 320.151428,543.195496 
	C320.777832,545.835327 320.034271,546.798706 317.304749,546.774170 
	C307.693146,546.687988 298.079163,546.659973 288.468536,546.789856 
	C285.529358,546.829590 285.210266,545.810608 285.906219,543.245544 
	C288.520844,533.609070 298.217773,528.431152 309.575073,531.110291 
z"/>
<path fill="#FAFCFD" opacity="1.000000" stroke="none" 
	d="
M92.688019,564.205505 
	C87.994835,557.843018 86.957108,551.184509 89.407089,544.088318 
	C92.477470,535.195251 100.855057,529.600220 109.767815,530.294495 
	C118.164711,530.948608 125.902176,537.996155 127.747070,546.670715 
	C129.687866,555.796204 125.411156,565.150024 117.286552,569.549438 
	C109.288651,573.880127 100.178307,571.981506 92.688019,564.205505 
z"/>
<path fill="#ECF2F6" opacity="1.000000" stroke="none" 
	d="
M186.647446,611.946472 
	C189.477951,609.578796 192.109268,609.371521 194.373962,611.906372 
	C195.974976,613.698364 195.932022,615.985291 194.446320,617.838867 
	C192.800919,619.891724 190.470764,620.168640 188.178101,618.986084 
	C185.216171,617.458252 185.067001,615.015869 186.647446,611.946472 
z"/>
<path fill="#F0F5F8" opacity="1.000000" stroke="none" 
	d="
M572.571411,611.466309 
	C574.800293,616.528259 572.967773,620.055176 568.673218,619.618347 
	C566.798889,619.427734 565.054565,618.613525 564.380249,616.661194 
	C563.750305,614.837646 563.878723,612.980957 565.427795,611.593445 
	C567.571106,609.673645 569.903687,609.638184 572.571411,611.466309 
z"/>
<path fill="#FEFEFE" opacity="1.000000" stroke="none" 
	d="
M572.838867,621.819092 
	C573.260864,620.992859 573.768799,620.842102 573.706787,622.243408 
	C573.422119,622.335754 573.250244,622.194031 572.838867,621.819092 
z"/>
<path fill="#F0F5F8" opacity="1.000000" stroke="none" 
	d="
M75.650681,620.129272 
	C72.085052,620.777527 70.002258,619.465881 69.315605,616.382080 
	C68.806175,614.094116 69.580223,612.058716 71.682983,610.810425 
	C73.823341,609.539795 76.067825,609.793701 77.555122,611.675354 
	C80.052879,614.835449 79.714790,617.805786 75.650681,620.129272 
z"/>
<path fill="#E7EFF5" opacity="1.000000" stroke="none" 
	d="
M134.031723,614.055786 
	C132.552139,613.453735 129.915131,615.242920 130.417908,612.637756 
	C130.886887,610.207825 133.354279,609.626099 135.682693,610.287598 
	C137.092072,610.687927 138.967484,611.528137 138.411316,613.209900 
	C137.874283,614.833862 135.813828,613.789673 134.031723,614.055786 
z"/>
<path fill="#ECF2F6" opacity="1.000000" stroke="none" 
	d="
M293.906738,610.083008 
	C296.103210,610.586914 297.692566,611.282654 297.756866,613.528809 
	C296.517944,614.407715 295.142822,614.155518 293.937805,613.984924 
	C292.375397,613.763611 289.760101,615.159607 289.484192,612.830078 
	C289.277435,611.084656 291.535706,610.131653 293.906738,610.083008 
z"/>
<path fill="#F0F5F8" opacity="1.000000" stroke="none" 
	d="
M239.339493,610.618835 
	C242.643616,612.978516 243.105011,615.760803 240.990555,618.586487 
	C239.237198,620.929626 236.589981,621.024353 234.295975,619.388977 
	C231.927460,617.700500 231.677032,615.161255 233.009140,612.690735 
	C234.279892,610.334045 236.432938,609.689575 239.339493,610.618835 
z"/>
<path fill="#F2F6F9" opacity="1.000000" stroke="none" 
	d="
M617.081970,619.032349 
	C611.949951,621.025696 609.339661,619.977722 608.899170,616.101074 
	C608.521851,612.780884 609.822754,610.439209 613.327332,610.210571 
	C616.846802,609.981018 618.449219,612.192932 618.448425,615.495056 
	C618.448181,616.577271 617.766968,617.659302 617.081970,619.032349 
z"/>
<path fill="#E7EFF5" opacity="1.000000" stroke="none" 
	d="
M511.173798,620.793091 
	C509.246826,619.995483 508.160767,618.885559 509.351593,617.252380 
	C510.614044,615.520996 512.679260,616.207825 514.452087,616.197571 
	C515.399536,616.192017 516.103027,616.718689 515.934204,617.718445 
	C515.523743,620.149231 513.719299,620.784912 511.173798,620.793091 
z"/>
<path fill="#F0F5F8" opacity="1.000000" stroke="none" 
	d="
M87.978630,618.142883 
	C86.575722,615.003784 87.092506,612.619202 89.602585,610.868042 
	C91.234772,609.729309 93.018951,609.844360 94.701973,610.895142 
	C96.790802,612.199158 97.344460,614.195374 96.923317,616.459656 
	C96.167732,620.522217 92.443413,621.365479 87.978630,618.142883 
z"/>
<path fill="#F2F6F9" opacity="1.000000" stroke="none" 
	d="
M673.350403,614.394409 
	C674.377075,611.415771 676.083618,609.807922 679.003845,610.192688 
	C681.147705,610.475159 682.680664,611.698364 683.003845,613.955505 
	C683.413147,616.814941 682.919800,619.474060 679.642151,620.150085 
	C675.480530,621.008484 673.505615,618.794617 673.350403,614.394409 
z"/>
<path fill="#F2F6F9" opacity="1.000000" stroke="none" 
	d="
M350.150543,619.434998 
	C346.580261,621.103027 343.878479,620.531128 342.457489,617.132263 
	C341.472687,614.776733 342.152893,612.543274 344.344513,611.029907 
	C346.566132,609.495728 348.906891,609.696594 350.629944,611.620361 
	C352.769958,614.009583 352.708618,616.696411 350.150543,619.434998 
z"/>
</svg>